#####################################################################
# Alchemist log file - simulation started at: 2017-12-15T19:47+0000 #
#####################################################################
# random = 1.0, errorLB = 2.0, trustThreshold = 0.55
#
# The columns have the following meaning: 
# time error-fakes[Sum] error-trust[Sum] error-trust-recomm[Sum] merrdiff[Mean] 
0.0 NaN NaN NaN NaN 
1.0018431556818637 0.0 0.0 0.0 0.0 
2.001843155681864 0.0 0.0 0.0 0.0 
3.001843155681864 0.0 0.0 0.0 0.0 
4.001843155681864 0.0 0.0 0.0 0.0 
5.001843155681864 0.0 0.0 0.0 0.0 
6.001843155681864 0.0 0.0 0.0 0.0 
7.001843155681864 0.0 0.0 0.0 0.0 
8.001843155681865 0.0 0.0 0.0 0.0 
9.001843155681865 0.0 0.0 0.0 0.0 
10.001843155681865 0.0 0.0 0.0 0.0 
11.001843155681865 0.0 0.0 0.0 0.0 
12.001843155681865 0.0 0.0 0.0 0.0 
13.001843155681865 0.0 0.0 0.0 0.0 
14.001843155681865 0.0 0.0 0.0 0.0 
15.001843155681865 0.0 0.0 0.0 0.0 
16.001843155681865 0.0 0.0 0.0 0.0 
17.001843155681865 0.0 0.0 0.0 0.0 
18.001843155681865 0.0 0.0 0.0 0.0 
19.001843155681865 0.0 0.0 0.0 0.0 
20.001843155681865 0.0 0.0 0.0 0.0 
21.001843155681865 0.0 0.0 0.0 0.0 
22.001843155681865 0.0 0.0 0.0 0.0 
23.001843155681865 0.0 0.0 0.0 0.0 
24.001843155681865 0.0 0.0 0.0 0.0 
25.001843155681865 0.0 0.0 0.0 0.0 
26.001843155681865 0.0 0.0 0.0 0.0 
27.001843155681865 0.0 0.0 0.0 0.0 
28.001843155681865 0.0 0.0 0.0 0.0 
29.001843155681865 0.0 0.0 0.0 0.0 
30.001843155681865 0.0 0.0 0.0 0.0 
31.001843155681865 0.0 0.0 0.0 0.0 
32.00184315568187 0.0 0.0 0.0 0.0 
33.00184315568187 0.0 0.0 0.0 0.0 
34.00184315568187 0.0 0.0 0.0 0.0 
35.00184315568187 0.0 0.0 0.0 0.0 
36.00184315568187 0.0 0.0 0.0 0.0 
37.00184315568187 0.0 0.0 0.0 0.0 
38.00184315568187 0.0 0.0 0.0 0.0 
39.00184315568187 0.0 0.0 0.0 0.0 
40.00184315568187 0.0 0.0 0.0 0.0 
41.00184315568187 0.0 272.61438657892506 272.61438657892506 0.0 
42.00184315568187 0.0 37.497896507068575 37.497896507068575 0.024390243902439008 
43.00184315568187 0.0 26.48144814445503 26.48144814445503 0.0 
44.00184315568187 0.0 21.679439503619413 20.91790811722074 0.0 
45.00184315568187 0.0 15.16476993294131 14.336306111232762 0.0 
46.00184315568187 0.0 15.601058772912307 13.164250958893241 0.0 
47.00184315568187 0.0 12.082380611149704 8.798279186381167 0.0 
48.00184315568187 0.0 11.045906850499 8.05512998325346 0.0 
49.00184315568187 0.0 8.875917903994567 6.513703700601445 0.0 
50.0 0.0 7.518511876996811 6.2539459308610645 0.0 
51.00184315568187 0.007126297032646889 7.8587012432767445 4.64126857572552 0.0011086474501108726 
52.00184315568187 4.641264320248689 11.550060595026425 9.46665776412967 0.0 
53.00184315568187 5.743050182464977 12.316591620319524 10.157209863627525 0.0033259423503325647 
54.00184315568187 17.892729663557894 23.502387932910718 21.342673380761926 0.0011086474501108726 
55.00184315568187 27.913200205941628 33.83624988766597 31.50544279716181 0.0 
56.00184315568187 41.29832369054931 45.66763018518576 43.29981610348982 0.0 
57.00184315568187 62.170409994466674 67.63772431842911 65.16579179074422 0.0011086474501108726 
58.00184315568187 77.60196843949149 81.28243003381685 78.83242719660588 0.002217294900221745 
59.00184315568187 82.46986206412875 85.53779144981277 83.93294141742687 0.0011086474501108726 
60.00184315568187 90.07314528051903 92.90910936097414 90.52760642904737 0.0011086474501108726 
61.00184315568187 147.52275956802046 93.21728739975882 90.29004169303566 0.0011086474501108726 
62.00184315568187 229.50500975728647 86.83950111573756 84.2622582881298 0.0 
63.00184315568187 436.8047747759502 79.10822837838165 76.06081642182328 0.0011086474501108726 
64.00184315568187 639.9915998999512 70.15501281081598 67.12541723925423 0.0011086474501108726 
65.00184315568187 859.1559707152984 57.09590004072126 53.5612699045229 0.0011086474501108726 
66.00184315568187 1077.8947864529255 46.70982067444136 42.733267674374105 0.0011086474501108726 
67.00184315568187 1288.4813826561651 35.65475251436601 31.624602108714416 0.0 
68.00184315568187 1384.0463074634959 25.111580360523217 21.012931038730176 0.0011086474501108726 
69.00184315568187 1440.1931898720977 17.18049791532904 13.052057545591786 0.0011086474501108726 
70.00184315568187 1438.4370677587247 11.259049695731036 6.682980982784187 0.0011086474501108726 
71.00184315568187 1412.7911331213666 7.466738134564956 2.8480212345172653 0.0011086474501108726 
72.00184315568187 1368.1873608509673 5.985196316107345 1.0089037152111544 0.0011086474501108726 
73.00184315568187 1322.109933297736 5.7902862822217855 0.19276786826771186 0.0011086474501108726 
74.00184315568187 1259.7490701430104 7.6260274192863005 0.47998902971587576 0.0011086474501108726 
75.00184315568187 1191.157806762961 8.69562930697931 0.8887150891052968 0.0011086474501108726 
76.00184315568187 1136.2205967978045 10.215431543716846 0.8887150891052968 0.0011086474501108726 
77.00184315568187 1084.0541441779267 11.550289867883151 1.297441148494718 0.0 
78.00184315568187 1071.0546481931074 12.559514731392774 1.6967158252627375 0.0 
79.00184315568187 1049.6942442123614 14.296420922402302 1.6967158252627375 0.0011086474501108726 
80.00184315568187 1029.6547482613314 15.310242379001377 2.6206394559455823 0.0011086474501108726 
81.00184315568187 1005.8031766957063 20.26014482887751 4.43745048832381 0.0011086474501108726 
82.00184315568187 976.8735337808524 23.41776523048262 5.69164117854409 0.0011086474501108726 
83.00184315568187 947.3194558640463 24.821088777678963 7.748196975084483 0.0011086474501108726 
84.00184315568187 901.7632168771028 24.051693586137556 6.9072846755003265 0.0011086474501108726 
85.00184315568187 855.3354720769536 25.408445391970833 5.290321351129743 0.0011086474501108726 
86.00184315568187 796.449602964978 28.07050584084251 7.8423526641544665 0.0011086474501108726 
87.00184315568187 736.6162906531813 28.279461050944736 5.778697567452081 0.0011086474501108726 
88.00184315568187 675.6358982240209 26.523882507119648 5.610666853646405 0.0011086474501108726 
89.00184315568187 614.1408615512049 24.332193984732573 5.141356807276171 0.0011086474501108726 
90.00184315568187 560.2877671042357 24.889193262369158 5.595161206725917 0.0011086474501108726 
91.00184315568187 500.065791225799 23.909343977316123 4.359437078871393 0.0011086474501108726 
92.00184315568187 446.6888700155691 22.038279536835457 3.796930227135748 0.0011086474501108726 
93.00184315568187 388.33468087635663 21.829051132394074 3.432186153901755 0.0011086474501108726 
94.00184315568187 339.2332001527887 21.44853157939553 2.9493153926911866 0.0011086474501108726 
95.00184315568187 311.86875599828124 20.638266430675056 2.4788685251544305 0.0011086474501108726 
96.00184315568187 298.2723095097108 20.437375932897613 2.505241131565363 0.0011086474501108726 
97.00184315568187 330.60281858259884 20.682580721825264 2.505241131565363 0.0011086474501108726 
98.00184315568187 359.2208483861929 20.758052229412012 2.1059664547973433 0.0011086474501108726 
99.00184315568187 395.9723019370823 22.220728353465912 2.5146925141867644 0.0011086474501108726 
100.00184315568187 462.3283023550716 23.41914752757057 3.0705103226231696 0.0011086474501108726 
101.00184315568187 517.4694152293491 24.11081482576449 3.5608932786028493 0.0011086474501108726 
102.00184315568187 540.5514390583288 25.754737257828662 4.739002111177154 0.0 
103.00184315568187 558.5244017531239 26.01558759959485 4.452240832243264 0.0011086474501108726 
104.00184315568187 582.6453658757184 27.080077349720394 4.422713401582904 0.0011086474501108726 
105.00184315568187 625.5994625927041 27.09111976088141 5.149963471239882 0.0 
106.00184315568187 730.294117970229 26.817161785818126 4.782604594517581 0.0 
107.00184315568187 839.5923931056617 25.905331456415414 4.768505708311343 0.0011086474501108726 
108.00184315568187 954.4113740242583 24.662989957832263 4.360322780329971 0.0011086474501108726 
109.00184315568187 1077.5433620139263 23.234800077232403 3.5054005734675897 0.0011086474501108726 
110.00184315568187 1203.806658460155 22.236957070507852 3.5345632217676766 0.0011086474501108726 
111.00184315568187 1290.3558954734124 21.34544872217914 3.3970885190662994 0.0011086474501108726 
112.00184315568187 1350.0776848710045 20.474275872015806 2.505241131565363 0.0011086474501108726 
113.00184315568187 1374.6213234972195 19.52939475900241 2.5146925141867644 0.0011086474501108726 
114.00184315568187 1378.4068945590127 18.699569314119184 2.913967190954784 0.0011086474501108726 
115.00184315568187 1359.697178795321 18.97389046115504 2.5138571436539454 0.0011086474501108726 
116.00184315568187 1336.6303735992701 19.423615883897124 2.913131820421965 0.0011086474501108726 
117.00184315568187 1290.7111988516597 20.19730974803593 2.5146925141867644 0.0 
118.00184315568187 1249.309688664786 21.876373971725695 2.5138571436539454 0.0011086474501108726 
119.00184315568187 1200.377333000186 22.583970791363317 2.897045967165253 0.0011086474501108726 
120.00184315568187 1161.7979539005282 23.173577418637596 2.913967190954784 0.0011086474501108726 
121.00184315568187 1118.7320904985963 24.439182630083767 2.505241131565363 0.0 
122.00184315568187 1076.949412247842 22.49639898111337 2.096515072175942 0.0011086474501108726 
123.00184315568187 1035.7915635487143 21.499947042496284 2.096515072175942 0.0011086474501108726 
124.00184315568187 999.0938514914214 19.521390311901595 1.6877890127865207 0.0011086474501108726 
125.00184315568187 980.3912205668271 17.26770944294044 1.2885143360185012 0.0011086474501108726 
126.00184315568187 973.925491354006 14.763194339388832 1.2885143360185012 0.0 
127.00184315568187 1025.8366915389824 12.536051893287354 0.8884042887176626 0.0011086474501108726 
128.00184315568185 1073.544149908886 9.829904641026623 0.8875689181848436 0.0011086474501108726 
129.00184315568185 1140.4627968825441 8.279598379037571 0.4882942414168241 0.0011086474501108726 
130.00184315568185 1192.671192892484 5.49462520959454 0.08818419411598555 0.0011086474501108726 
131.00184315568185 1244.7437722749926 4.382457881163955 0.07126297032645468 0.0011086474501108726 
132.00184315568185 1269.9553631773636 2.866620079037984 0.07126297032645468 0.0011086474501108726 
133.00184315568185 1264.1892909072699 2.000301226559218 0.07126297032645468 0.0011086474501108726 
134.00184315568185 1246.3403445578454 1.9344418340818075 0.07126297032645468 0.0011086474501108726 
135.00184315568185 1196.5665595183623 1.8223542408478453 0.07126297032645468 0.0 
136.00184315568185 1144.5700128865135 1.790313519290615 0.07126297032645468 0.0 
137.00184315568185 1079.3477436177243 1.6611154126037648 0.07126297032645468 0.0011086474501108726 
138.00184315568185 1004.3932609021176 1.5508851873094984 0.07126297032645468 0.0011086474501108726 
139.00184315568185 938.1320836088863 1.5508851873094984 0.07126297032645468 0.0011086474501108726 
140.00184315568185 859.8603164060381 1.5508851873094984 0.07126297032645468 0.0 
141.00184315568185 799.6679602864428 1.5508851873094984 0.07126297032645468 0.0011086474501108726 
142.00184315568185 751.4957978671854 1.5508851873094984 0.07126297032645468 0.0011086474501108726 
143.00184315568185 728.8206172747524 1.5508851873094984 0.07126297032645468 0.0011086474501108726 
144.00184315568185 756.8468167341326 1.5508851873094984 0.07126297032645468 0.0011086474501108726 
145.00184315568185 788.5073824864642 1.5508851873094984 0.07126297032645468 0.0011086474501108726 
146.00184315568185 824.6703192304248 1.5508851873094984 0.07126297032645468 0.0 
147.00184315568185 881.1406368256008 1.5508851873094984 0.07126297032645468 0.0011086474501108726 
148.00184315568185 950.4705880666767 1.5508851873094984 0.07126297032645468 0.0011086474501108726 
149.00184315568185 1029.7351379083211 2.8664777972219873 0.07126297032645468 0.0011086474501108726 
150.00184315568185 1093.930624471303 2.955434664366709 0.07126297032645468 0.0011086474501108726 
151.00184315568185 1155.9911524956824 4.7968635865030205 0.07126297032645468 0.0011086474501108726 
152.00184315568185 1203.847133499014 4.75002537013458 0.07126297032645468 0.0011086474501108726 
153.00184315568185 1251.439672408927 8.11298364651578 0.07126297032645468 0.0011086474501108726 
154.00184315568185 1298.1713441816382 9.432806707534308 0.47998902971587576 0.0011086474501108726 
155.00184315568185 1325.366934843058 11.504169518782945 1.003802613097882 0.0011086474501108726 
156.00184315568185 1347.4903850454343 13.595648968829785 0.48029760202100746 0.0011086474501108726 
157.00184315568185 1348.7738953741289 16.53790759444104 1.003802613097882 0.0011086474501108726 
158.00184315568185 1346.00228460614 19.0797434959582 1.8118033492553227 0.0011086474501108726 
159.00184315568185 1328.2880678249585 21.01794834594872 2.5374569896230508 0.0011086474501108726 
160.00184315568185 1309.0922965155312 22.29738790065633 3.2861392039194666 0.0011086474501108726 
161.00184315568185 1270.1672680979489 25.031349409687916 4.090715626738206 0.0011086474501108726 
162.00184315568185 1235.3350932236094 26.167651975114172 4.034114099070802 0.0011086474501108726 
163.00184315568185 1182.8960088475771 26.708713129691592 4.814123800945966 0.0011086474501108726 
164.00184315568185 1145.6422291015954 27.347037427240227 3.8493845713341113 0.0 
165.00184315568185 1089.4185167835972 27.438893659540067 3.969426229792182 0.0011086474501108726 
166.00184315568185 1038.578807751906 27.88334201298029 4.286442386857667 0.0011086474501108726 
167.00184315568185 985.7146590318295 27.530924605348655 3.8686521002553587 0.0011086474501108726 
168.00184315568185 922.5775209851992 27.584665577018523 3.9171840334519015 0.0011086474501108726 
169.00184315568185 867.7998602988569 27.65804234948686 3.026172016483782 0.0011086474501108726 
170.00184315568185 799.0521237740272 28.11584140796882 3.5444335396647215 0.0011086474501108726 
171.00184315568185 741.765555715578 28.602175701230667 4.141736723590759 0.0011086474501108726 
172.00184315568185 677.8577059948406 28.650008384269622 5.1222417512032035 0.0011086474501108726 
173.00184315568185 615.031388399727 29.154789848713396 6.63768685601258 0.0011086474501108726 
174.00184315568185 567.6598430287437 29.160736591930732 7.564021779516276 0.0011086474501108726 
175.00184315568185 522.3009712331044 29.599238202153618 7.766777956665203 0.0 
176.00184315568185 501.8850990206484 30.009243032183054 8.753181785840267 0.0 
177.00184315568185 498.577587821725 29.96039760739811 8.793914826696149 0.0011086474501108726 
178.00184315568185 521.5390261601666 29.98471168449966 9.46767055264107 0.0011086474501108726 
179.00184315568185 612.2357078207772 29.918511667576492 9.501816561222714 0.0011086474501108726 
180.00184315568185 711.8997075149122 29.8939803198931 9.554991848114081 0.0011086474501108726 
181.00184315568185 814.7412631745364 29.415910454395277 8.448048323917368 0.0 
182.00184315568185 916.8395889763281 29.394295321589514 7.506513923210813 0.0011086474501108726 
183.00184315568185 1008.5399802781997 28.9162254560917 6.042900067866766 0.0011086474501108726 
184.00184315568185 1048.5277266254166 27.99052543955308 5.510125571504615 0.0011086474501108726 
185.00184315568185 1045.3618401786189 25.981082400659158 4.116272772111923 0.0011086474501108726 
186.00184315568185 1042.4998468794406 23.6223403405367 3.015052745644006 0.0011086474501108726 
187.00184315568185 1024.995636052927 21.439613960844394 2.5413702841588695 0.0011086474501108726 
188.00184315568185 1032.363269413117 19.463350612321765 1.4208702127746804 0.0011086474501108726 
189.00184315568185 1039.9474595885415 16.4653835861932 0.8875689181848436 0.0 
190.00184315568185 1050.0242472226073 14.736407823901665 0.4882942414168241 0.0011086474501108726 
191.00184315568185 1055.068161492069 13.278707625814796 0.08818419411598555 0.0011086474501108726 
192.00184315568185 1073.442071391825 10.21612709641791 0.07126297032645468 0.0 
193.00184315568185 1082.4628332690081 8.341536357946305 0.07126297032645468 0.0011086474501108726 
194.00184315568185 1088.3260453622474 6.185344346801214 0.07126297032645468 0.0 
195.00184315568185 1080.08364128748 5.297864556867896 0.07126297032645468 0.0011086474501108726 
196.00184315568185 1068.1439791634346 4.494869319858287 0.07126297032645468 0.0 
197.00184315568185 1043.1420609574875 3.4780515322261585 0.07126297032645468 0.0 
198.00184315568185 1017.8968251559616 3.5344500749014833 0.07126297032645468 0.0011086474501108726 
199.00184315568185 974.4061162223453 2.504167431772613 0.07126297032645468 0.0 
200.00184315568185 926.4665316829954 2.4050636328323964 0.07126297032645468 0.0011086474501108726 
201.00184315568185 896.1389989969066 1.9868527072321223 0.07126297032645468 0.0011086474501108726 
202.00184315568185 893.8096060783078 1.5678064110990293 0.07126297032645468 0.0011086474501108726 
203.00184315568185 937.7930786077837 1.5508851873094984 0.07126297032645468 0.0011086474501108726 
204.00184315568185 1010.9198626537785 1.5508851873094984 0.07126297032645468 0.0011086474501108726 
205.00184315568185 1090.8193279500376 1.5508851873094984 0.07126297032645468 0.0011086474501108726 
206.00184315568185 1172.2617090380681 2.8664777972219873 0.07126297032645468 0.0011086474501108726 
207.00184315568185 1253.8079136909553 3.0590001482333196 0.07126297032645468 0.0011086474501108726 
208.00184315568185 1305.820525040886 4.793592584891018 0.07126297032645468 0.0011086474501108726 
209.00184315568185 1333.6376693700945 5.994910238187115 0.07126297032645468 0.0 
210.00184315568185 1326.209224318355 6.775346585740792 0.07126297032645468 0.0011086474501108726 
211.00184315568185 1308.444801977668 8.452781833393114 0.07126297032645468 0.0011086474501108726 
212.00184315568185 1259.6146531117201 9.56271780034572 0.07126297032645468 0.0011086474501108726 
213.00184315568185 1207.0844891230097 10.943827569248839 0.07126297032645468 0.0011086474501108726 
214.00184315568185 1142.326018761058 12.704322712420339 0.07126297032645468 0.0011086474501108726 
215.00184315568185 1064.7902240546362 13.633132702334187 0.07126297032645468 0.0011086474501108726 
216.00184315568185 989.420399535139 15.506472774394343 0.07126297032645468 0.0011086474501108726 
217.00184315568185 903.6244843811766 16.051863018254846 0.07126297032645468 0.0011086474501108726 
218.00184315568185 823.757845220099 16.793818489999314 0.07126297032645468 0.0011086474501108726 
219.00184315568185 740.0693804913982 17.35921811752053 0.07126297032645468 0.0011086474501108726 
220.00184315568185 661.0707207465105 17.62445557641249 0.07126297032645468 0.0 
221.00184315568185 635.5964335219894 18.161363081301726 0.07126297032645468 0.0011086474501108726 
222.00184315568185 645.094512524183 18.53655664913548 0.07126297032645468 0.0011086474501108726 
223.00184315568185 768.0861224736116 18.547810835450004 0.07126297032645468 0.0011086474501108726 
224.00184315568185 893.1829447832363 17.626243353762195 0.07126297032645468 0.0011086474501108726 
225.00184315568185 1039.6199926604527 17.180198703921906 0.07126297032645468 0.0011086474501108726 
226.00184315568185 1176.187533897955 16.70489378404088 0.07126297032645468 0.0011086474501108726 
227.00184315568185 1321.1604201062903 16.229588864159805 0.07126297032645468 0.0011086474501108726 
228.00184315568185 1398.6111324460244 15.410389084110939 0.07126297032645468 0.0 
229.00184315568185 1421.6898729102459 14.50449904449335 0.07126297032645468 0.0 
230.00184315568185 1422.332127290117 12.546532088543888 0.07126297032645468 0.0011086474501108726 
231.00184315568185 1374.8790049206411 10.915669534647112 0.07126297032645468 0.0011086474501108726 
232.00184315568185 1357.7957949013276 8.621754558069785 0.07126297032645468 0.0011086474501108726 
233.00184315568185 1334.920264348051 7.171627326209707 0.07126297032645468 0.0011086474501108726 
234.00184315568185 1365.172946274776 5.937054967377852 0.07126297032645468 0.0011086474501108726 
235.00184315568185 1394.8813501483276 4.8893081816632336 0.07126297032645468 0.0011086474501108726 
236.00184315568185 1440.55158802006 4.048592387741349 0.07126297032645468 0.0011086474501108726 
237.00184315568185 1475.4787395083424 3.229821418515852 0.07126297032645468 0.0011086474501108726 
238.00184315568185 1501.975180049778 2.542004705658238 0.07126297032645468 0.0 
239.00184315568185 1512.9182946468911 2.005788956064377 0.07126297032645468 0.0 
240.00184315568185 1503.7157937166803 1.5867426599312837 0.07126297032645468 0.0011086474501108726 
241.00184315568185 1500.8286378581042 1.5508851873094984 0.07126297032645468 0.0011086474501108726 
242.00184315568185 1489.3252509208044 1.5508851873094984 0.07126297032645468 0.0011086474501108726 
243.00184315568185 1477.1845041607917 1.5508851873094984 0.07126297032645468 0.0011086474501108726 
244.00184315568185 1454.174112971825 2.8664777972219873 0.07126297032645468 0.0011086474501108726 
245.00184315568185 1426.9640040184606 3.0590001482333196 0.07126297032645468 0.0011086474501108726 
246.00184315568185 1390.3477298114665 5.268897504772074 0.07126297032645468 0.0011086474501108726 
247.00184315568185 1356.6289903463846 7.129822283994594 0.47998902971587576 0.0011086474501108726 
248.00184315568185 1309.332472949535 9.378602465366473 0.8887150891052968 0.0011086474501108726 
249.00184315568185 1261.2679534466893 11.454291705912386 0.47998902971587576 0.0011086474501108726 
#####################################################################
# End of data export. Simulation finished at: 2017-12-15T19:52+0000 #
#####################################################################
