#####################################################################
# Alchemist log file - simulation started at: 2017-12-15T19:09+0000 #
#####################################################################
# random = 0.0, errorLB = 2.0, trustThreshold = 0.9500000000000004
#
# The columns have the following meaning: 
# time error-fakes[Sum] error-trust[Sum] error-trust-recomm[Sum] merrdiff[Mean] 
0.0 NaN NaN NaN NaN 
1.0011337332612453 0.0 0.0 0.0 0.0 
2.0011337332612453 0.0 0.0 0.0 0.0 
3.0011337332612453 0.0 0.0 0.0 0.0 
4.001133733261245 0.0 0.0 0.0 0.0 
5.001133733261245 0.0 0.0 0.0 0.0 
6.001133733261245 0.0 0.0 0.0 0.0 
7.001133733261245 0.0 0.0 0.0 0.0 
8.001133733261245 0.0 0.0 0.0 0.0 
9.001133733261245 0.0 0.0 0.0 0.0 
10.001133733261245 0.0 0.0 0.0 0.0 
11.001133733261245 0.0 0.0 0.0 0.0 
12.001133733261245 0.0 0.0 0.0 0.0 
13.001133733261245 0.0 0.0 0.0 0.0 
14.001133733261245 0.0 0.0 0.0 0.0 
15.001133733261245 0.0 0.0 0.0 0.0 
16.001133733261245 0.0 0.0 0.0 0.0 
17.001133733261245 0.0 0.0 0.0 0.0 
18.001133733261245 0.0 0.0 0.0 0.0 
19.001133733261245 0.0 0.0 0.0 0.0 
20.001133733261245 0.0 0.0 0.0 0.0 
21.001133733261245 0.0 0.0 0.0 0.0 
22.001133733261245 0.0 0.0 0.0 0.0 
23.001133733261245 0.0 0.0 0.0 0.0 
24.001133733261245 0.0 0.0 0.0 0.0 
25.001133733261245 0.0 0.0 0.0 0.0 
26.001133733261245 0.0 0.0 0.0 0.0 
27.001133733261245 0.0 0.0 0.0 0.0 
28.001133733261245 0.0 0.0 0.0 0.0 
29.001133733261245 0.0 0.0 0.0 0.0 
30.001133733261245 0.0 0.0 0.0 0.0 
31.001133733261245 0.0 0.0 0.0 0.0 
32.00113373326124 0.0 0.0 0.0 0.0 
33.00113373326124 0.0 0.0 0.0 0.0 
34.00113373326124 0.0 0.0 0.0 0.0 
35.00113373326124 0.0 0.0 0.0 0.0 
36.00113373326124 0.0 0.0 0.0 0.0 
37.00113373326124 0.0 0.0 0.0 0.0 
38.00113373326124 0.0 0.0 0.0 0.0 
39.00113373326124 0.0 0.0 0.0 0.0 
40.00113373326124 0.0 0.0 0.0 0.0 
41.00113373326124 0.0 255.652919849277 255.652919849277 0.0 
42.00113373326124 0.0 32.317151114338884 32.317151114338884 0.018847006651884723 
43.00113373326124 0.0 27.093315912204 27.093315912204 0.0 
44.00113373326124 0.0 281.8639677976193 281.8639677976193 0.0 
45.00113373326124 0.0 281.8639677976193 281.9779940042176 0.011086474501108657 
46.00113373326124 0.0 281.8639677976193 438.62800564268707 0.011086474501108657 
47.00113373326124 0.0 281.8639677976193 598.3058518658116 0.011086474501108657 
48.00113373326124 0.0 281.8639677976193 850.5548192731987 0.01330376940133041 
49.00113373326124 0.0 281.8639677976193 1000.257903945894 0.01552106430155208 
50.0 0.0 281.8639677976193 1230.9521742143977 0.018847006651884685 
51.00113373326124 0.0 297.10432044638804 1476.9195228426727 0.023281596452328177 
52.00113373326124 22.606225860512282 286.34715941602457 1701.881933453479 0.024390243902439004 
53.00113373326124 97.63265360479376 294.1381516087536 1998.5101388508212 0.01995565410199556 
54.00113373326124 205.9048027934773 292.00202484117864 2260.860270605376 0.028824833702882496 
55.00113373326124 437.9438108059596 282.6358723133058 2568.629667396434 0.025498891352549912 
56.00113373326124 658.506196425891 292.0685332276884 2868.7687632785155 0.028824833702882496 
57.00113373326124 909.7684959835265 282.40571730210576 3171.0604568065696 0.031042128603104173 
58.00113373326124 1176.089243676738 288.6605409203008 3497.7621891421577 0.031042128603104208 
59.00113373326124 1319.2839660080376 285.4971426550306 3808.5688342487956 0.036585365853658534 
60.00113373326124 1410.281838952548 294.40759668166453 4105.717699324491 0.04212860310421288 
61.00113373326124 1440.9837584044076 286.9885105572775 4432.4512057463535 0.049889135254988955 
62.00113373326124 1439.690970239497 285.4970713774997 4705.856451887505 0.054323725055432384 
63.00113373326124 1395.7700974167972 281.66289421489006 5017.799633399079 0.047671840354767125 
64.00113373326124 1344.5123794743517 298.18098472146045 5346.975418247999 0.04988913525498896 
65.00113373326124 1273.770512226172 290.61317273392416 5680.192100441289 0.04988913525498896 
66.00113373326124 1198.625351601518 287.1706613281562 5978.760278303155 0.05210643015521065 
67.00113373326124 1117.307993419069 294.3818446166111 6290.534543428472 0.052106430155210666 
68.00113373326124 1025.8786058239693 293.4948189676788 6593.122962891651 0.05099778270509987 
69.00113373326124 944.8269786640633 293.92027418332765 6915.56759023607 0.05210643015521066 
70.00113373326124 851.5875391136968 292.47465036421437 7224.861239738159 0.05321507760532162 
71.00113373326124 782.8863544138358 287.90009708885276 7559.294427252635 0.05543237250554313 
72.00113373326124 708.1539334231979 296.93380319503336 7879.275965587888 0.05099778270509989 
73.00113373326124 681.4136704289658 292.60944334082757 8187.4170825933925 0.044345898004434676 
74.00113373326124 632.2242507332977 293.314007541216 8495.409970114299 0.0421286031042129 
75.00113373326124 590.8763812213572 283.0769614448182 8799.362629661384 0.045454545454545435 
76.00113373326124 551.4208279881423 294.87873154266373 9120.446562476409 0.04434589800443465 
77.00113373326124 511.7124092212063 283.1248718727898 9429.815084494223 0.04656319290465624 
78.00113373326124 478.6278434559255 292.3820850057437 9757.99049317553 0.04988913525498875 
79.00113373326124 436.4974009395313 283.2926153564694 10069.425942673572 0.04212860310421293 
80.00113373326124 403.6654790713946 284.08800374337517 10376.599615964124 0.042128603104212924 
81.00113373326124 366.90121717330965 284.7974288370985 10692.438573159632 0.04545454545454542 
82.00113373326124 327.15304381578966 295.0610038795107 11048.530272975271 0.046563192904656346 
83.00113373326124 307.3706639568749 288.2542067616035 11391.260222907189 0.04434589800443464 
84.00113373326124 270.9437508653496 284.08354672619663 11728.640350607988 0.04767184035476718 
85.00113373326124 245.49287743903275 286.27688087778955 12076.488958761125 0.039911308203991205 
86.00113373326124 221.88566567735973 282.5072067271746 12429.227966971845 0.041019955654102 
87.00113373326124 194.8323523901775 293.45415778052944 12776.319774342861 0.041019955654102 
88.00113373326124 175.63167097806124 295.8063419278139 13133.210547251698 0.039911308203991185 
89.00113373326124 157.31284299442692 298.2188980373765 13490.652936675742 0.038802660753880246 
90.00113373326124 189.6314760656203 291.4015568887783 13872.975788167327 0.043237250554323696 
91.00113373326124 222.92297260013638 285.3055312120095 14231.975510235095 0.03991130820399111 
92.00113373326124 382.9713939385465 288.6139084120353 14595.316827484367 0.0376940133037694 
93.00113373326124 517.7379145112875 288.3791975171818 14973.152820040326 0.041019955654102 
94.00113373326124 645.1096025053846 282.4727627957132 15339.212557199997 0.03436807095343686 
95.00113373326124 830.1999366159291 290.555532439963 15726.343770743913 0.042128603104212896 
96.00113373326124 919.331273785981 288.3145878817623 16085.94249945865 0.04545454545454547 
97.00113373326124 981.0036799608281 297.6031934937384 16478.765517686217 0.03436807095343685 
98.00113373326124 991.8479908419218 293.61887886406777 16860.186794552876 0.03436807095343686 
99.00113373326124 979.1911417556558 283.7829058264652 17254.936550419923 0.03325942350332598 
100.00113373326124 952.7034356040162 284.0317110444084 17679.23037820477 0.03436807095343687 
101.00113373326124 915.4005049647876 284.8356861507057 18073.571743183205 0.03215077605321504 
102.00113373326124 878.8572355741506 282.1724679377182 18500.383921940494 0.028824833702882458 
103.00113373326124 847.0731464440383 290.3323962458879 18905.603031837843 0.035476718403547686 
104.00113373326124 822.9633430419616 282.29077839946245 19337.27027528345 0.03547671840354768 
105.00113373326124 835.756724007041 283.8956025596112 19761.59232981274 0.027716186252771616 
106.00113373326124 832.0883727736422 288.7658962245749 20190.296829607574 0.032150776053215036 
107.00113373326124 828.5918070805297 281.7478321602394 20622.710875102388 0.03325942350332598 
108.00113373326124 835.1974586961691 285.7137896453357 21057.25729184055 0.03325942350332598 
109.00113373326124 825.6884022888029 288.0183351331727 21500.077471064644 0.028824833702882434 
110.00113373326124 810.4485110654568 298.4747550640439 21932.932889176467 0.023281596452328128 
111.00113373326124 773.3526055936608 294.1721050552316 22378.200628886894 0.022172949002217283 
112.00113373326124 741.1881940358727 290.3153510487493 22806.179938868958 0.01884700665188472 
113.00113373326124 686.3963614860215 295.6685067270361 23246.47880192326 0.01884700665188472 
114.00113373326124 634.4412474047152 286.3633399229172 23690.386497477495 0.025498891352549954 
115.00113373326124 580.4034750713686 293.5739902816544 24126.0845828467 0.024390243902439004 
116.00113373326124 543.9568579195064 285.8628930971417 24570.24842494028 0.022172949002217293 
117.00113373326124 488.84963018805 292.0469790819588 25012.045986264417 0.021064301552106406 
118.00113373326124 482.35687042150767 291.3709989695155 25462.67030408076 0.025498891352549954 
119.00113373326124 484.25316038257535 288.77111317100395 25906.96149101184 0.03325942350332599 
120.00113373326124 572.2402798976535 297.2651289784906 26364.05340588441 0.028824833702882385 
121.00113373326124 654.7192872610755 289.7328388083528 26803.65975399642 0.03215077605321512 
122.00113373326124 738.0371667838344 281.8073867740821 27259.42041835234 0.0343680709534368 
123.00113373326124 862.2062600825741 290.1459051033742 27705.77794965043 0.031042128603104117 
124.00113373326124 921.7046362289342 282.8160914033087 28156.19353153946 0.03325942350332599 
125.00113373326124 956.0320568226506 289.6656463204941 28618.122366566502 0.0343680709534368 
126.00113373326124 952.2537982339843 286.3163678982201 29060.596130079324 0.031042128603104107 
127.00113373326124 947.9473469159087 287.4120866027735 29520.286803326333 0.0354767184035478 
128.00113373326124 908.8202862515394 287.842859272069 29962.832386840284 0.0354767184035478 
129.00113373326124 873.2952957599578 298.21692480893654 30417.913122750055 0.028824833702882385 
130.00113373326124 832.6624838093983 285.2811972436994 30870.232220408154 0.03215077605321512 
131.00113373326124 788.0428063667947 286.5006331627538 31316.87359068704 0.034368070953436795 
132.00113373326124 745.5115571343297 290.03574358971406 31783.70331993 0.03215077605321512 
133.00113373326124 691.541314483421 298.0004889503967 32224.507746674026 0.03104212860310415 
134.00113373326124 647.7765766435806 283.76649610811495 32697.955582509254 0.03215077605321512 
135.00113373326124 588.9846578265256 296.6416800146357 33145.35129485558 0.03325942350332598 
136.00113373326124 531.631794726354 283.8012372868919 33607.23680321591 0.03547671840354774 
137.00113373326124 527.8539738076772 293.4485963261515 34057.443783122835 0.03658536585365856 
138.00113373326124 528.0322630147124 281.6354725352932 34500.320182219635 0.03658536585365856 
139.00113373326124 676.9441688185126 283.58519984893854 34971.14808468602 0.037694013303769425 
140.00113373326124 804.237777610237 289.9895943829527 35412.6467884327 0.03880266075388019 
141.00113373326124 940.5812521539111 290.50303881465544 35871.638887841866 0.03880266075388019 
142.00113373326124 1131.366749987604 288.85043648914615 36318.95421155951 0.03991130820399125 
143.00113373326124 1232.7509261234322 287.0610879046488 36773.94019482979 0.03991130820399125 
144.00113373326124 1294.4220533395048 284.6111670987853 37232.15907956539 0.041019955654102006 
145.00113373326124 1329.2365566042956 293.4809279725311 37668.60986191681 0.04212860310421274 
146.00113373326124 1337.7417942621764 285.72241718746756 38140.450781413616 0.041019955654102006 
147.00113373326124 1369.7648745803726 283.135690978853 38587.73843122104 0.041019955654102006 
148.00113373326124 1380.3672127768007 291.9579970590997 39053.01548837538 0.041019955654102006 
149.00113373326124 1387.949422787571 288.51991244285017 39496.47706929324 0.04212860310421274 
150.00113373326124 1412.1711693287768 292.01433756410216 39949.28706849694 0.03991130820399125 
151.00113373326124 1411.58269260872 297.8973584347106 40408.022714345614 0.04212860310421274 
152.00113373326124 1413.9982503874535 287.9040886890676 40839.26906915049 0.04212860310421274 
153.00113373326124 1382.3745875057755 294.1201540121912 41305.85198969511 0.041019955654102006 
154.00113373326124 1363.3563338675447 294.2320770351121 41730.0077150633 0.042128603104212736 
155.00113373326124 1318.7994494304312 290.55694464001107 42181.67420170814 0.04212860310421274 
156.00113373326124 1267.127867190214 293.625555232567 42629.66637103087 0.041019955654102006 
157.00113373326124 1217.6262360843755 289.73333303441535 43071.26593291902 0.04212860310421274 
158.00113373326124 1157.2206569535088 284.8810435405048 43523.34158995285 0.041019955654102006 
159.00113373326124 1117.0502613238857 282.63572215277753 43950.77919804748 0.041019955654102006 
160.00113373326124 1049.107223313201 283.70320565519893 44416.78745457718 0.042128603104212736 
161.00113373326124 995.3738699675039 287.2574081793471 44841.09455201174 0.041019955654102006 
162.00113373326124 932.7065711111567 297.027847803229 45307.92121669558 0.041019955654102006 
163.00113373326124 874.4102901462388 284.52303158064814 45726.858980202 0.041019955654102006 
164.00113373326124 811.8629160720415 285.80245679653177 46184.11449206931 0.043237250554323786 
165.00113373326124 767.729233098482 290.69938132949454 46623.15126280115 0.045454545454545525 
166.00113373326124 736.8320807145411 290.0654694314457 47057.92921869946 0.04656319290465624 
167.00113373326124 780.1680794015546 292.37600194948874 47512.14128414931 0.04656319290465624 
168.00113373326124 817.7321738103271 291.36748157957567 47934.21343640624 0.04767184035476731 
169.00113373326124 883.4636234045934 282.80228702076005 48400.616829144776 0.046563192904656235 
170.00113373326124 967.2529890663199 289.62758833113577 48823.9931755261 0.04878048780487802 
171.00113373326124 1035.6059914838258 285.07876790000483 49283.25324181721 0.04878048780487802 
172.00113373326124 1099.9480906949616 282.0244829116778 49717.203312371304 0.050997782705099894 
173.00113373326124 1129.8411756741582 283.2710101377855 50158.36692968462 0.050997782705099894 
174.00113373326124 1138.9991964991916 295.22230703785766 50609.643076612854 0.050997782705099894 
175.00113373326124 1115.282500708426 286.32689230362126 51038.01418155323 0.050997782705099894 
176.00113373326124 1092.705260823913 284.90286136562344 51502.14771049465 0.05210643015521061 
177.00113373326124 1034.4028730336952 295.0038363979813 51927.274151276564 0.05321507760532158 
178.00113373326124 974.4460973880524 288.4105784845927 52395.93351561024 0.05321507760532158 
179.00113373326124 902.9102111937087 291.51457221743436 52837.78559358 0.05210643015521063 
180.00113373326124 833.18685295528 292.686544789258 53296.823847663494 0.0532150776053216 
181.00113373326124 758.8157159818082 281.87221758521883 53746.50535408784 0.050997782705099894 
182.00113373326124 720.9359287224045 292.32567667246286 54190.06859064581 0.04988913525498874 
183.00113373326124 693.3005021664347 292.5517185263331 54652.37081125116 0.050997782705099894 
184.00113373326124 776.8443913399187 285.3102667564985 55092.70387891838 0.050997782705099894 
185.00113373326124 849.3322508674012 294.17340002986276 55554.4640100413 0.05099778270509989 
186.00113373326124 920.6044940249437 285.4856750379443 56000.623178898575 0.05099778270509989 
187.00113373326124 1032.1447327909902 283.79479614649125 56461.722039885106 0.050997782705099894 
188.00113373326124 1090.2455090996611 291.0090975748921 56908.97122588507 0.04988913525498872 
189.00113373326124 1123.0865260779167 286.3136902396837 57362.54662681794 0.05210643015521057 
190.00113373326124 1142.3595988575698 290.4628831929501 57823.49297628099 0.05210643015521057 
191.00113373326124 1130.734535500046 291.44693555604323 58269.07796077281 0.05321507760532163 
192.00113373326124 1106.6417142845653 291.2526079079831 58734.117042513564 0.05432372505543226 
193.00113373326124 1069.661830431151 285.0948784026771 59183.15611704833 0.0532150776053216 
194.00113373326124 1031.0414136010777 295.5854374315259 59654.74121538798 0.05432372505543226 
195.00113373326124 993.2172068020021 282.82008743448006 60098.42540096035 0.05432372505543226 
196.00113373326124 945.4885863550829 289.2056609487775 60548.2984603645 0.0565410199556542 
197.00113373326124 901.9322510348233 283.93222353045275 61003.19684874362 0.055432372505543365 
198.00113373326124 842.837033580989 285.99289781553676 61442.86197775394 0.05764966740576473 
199.00113373326124 788.8860561754152 292.29109910388394 61893.94556816949 0.05875831485587593 
200.00113373326124 719.4109339516053 281.5475297016249 62328.934058072206 0.06097560975609754 
201.00113373326124 655.5507308205977 294.14226753557244 62786.35913954999 0.059866962305986746 
202.00113373326124 588.1568673405393 293.0179784178027 63211.89991602123 0.06097560975609754 
203.00113373326124 525.9791146020418 282.1188296741088 63654.07743767097 0.05875831485587593 
204.00113373326124 462.1298057358436 292.4217016055432 64089.00983048514 0.05986696230598674 
205.00113373326124 411.2530327395519 285.7234466733856 64517.5208960126 0.05764966740576471 
206.00113373326124 401.744810639045 289.9064597286213 64963.33755265152 0.05764966740576471 
207.00113373326124 410.0335099556991 289.1565166062583 65385.21839728174 0.05875831485587593 
208.00113373326124 476.42831814864184 291.6625428582823 65824.83379258962 0.05986696230598674 
209.00113373326124 532.4447410181236 287.59704419266524 66239.92062291082 0.062084257206208235 
210.00113373326124 592.4701665599664 288.59612786644703 66659.28667535126 0.06097560975609754 
211.00113373326124 682.07876183861 282.40877762698045 67076.83932714343 0.062084257206208235 
212.00113373326124 739.2038442067021 290.2220752472253 67481.6273254161 0.06430155210643028 
213.00113373326124 762.8862075001969 287.18814838670534 67898.32042154131 0.062084257206208235 
214.00113373326124 801.0963405507575 283.4959565571739 68287.40868957718 0.062084257206208235 
215.00113373326124 810.3430201420682 286.9674069845949 68681.78810846388 0.06430155210643024 
216.00113373326124 819.1447824674068 289.93531938578116 69070.04749024686 0.06319290465631944 
217.00113373326124 832.8288838379186 289.79579991345014 69440.9081434943 0.06541019955654108 
218.00113373326124 871.3907824561614 294.1316729505201 69818.97799486203 0.06541019955654108 
219.00113373326124 899.5683313002517 289.176611230447 70190.07196215833 0.06541019955654108 
220.00113373326124 993.527951282013 290.5961558593718 70576.27094235452 0.06762749445676287 
221.00113373326124 1086.3548522120807 292.48533366627265 70935.21977133129 0.06762749445676287 
222.00113373326124 1185.776841763717 289.3680929750828 71298.92226861464 0.0698447893569842 
223.00113373326124 1318.3122512261446 284.7268232882346 71667.14371996 0.0698447893569842 
224.00113373326124 1387.0828776040025 285.3543028742103 72026.26999692866 0.06762749445676286 
225.00113373326124 1432.9973700202934 289.5188785715591 72399.3150270826 0.0687361419068736 
226.00113373326124 1441.6924620186123 294.249505334267 72765.20451509564 0.07206208425720631 
227.00113373326124 1439.789410207361 297.91165874541633 73134.85964053718 0.07206208425720631 
228.00113373326124 1394.3577499218986 283.70522301583975 73509.30454354713 0.07206208425720631 
229.00113373326124 1343.0546813718192 282.86424463023485 73875.7538804336 0.07206208425720631 
230.00113373326124 1272.895636758282 288.72721371708207 74260.0966119246 0.07317073170731708 
231.00113373326124 1200.515187522583 282.28958766015154 74635.59689066756 0.074279379157428 
232.00113373326124 1128.4251392828728 286.9272580828759 74940.13481228845 0.0753880266075389 
233.00113373326124 1039.169023438484 286.6514952555438 75320.05085003751 0.08093126385809307 
234.00113373326124 968.7469411084503 289.7141098222739 75706.50076953131 0.08314855875831487 
235.00113373326124 899.6907503195376 289.1485630674401 76099.35354152868 0.0842572062084256 
236.00113373326124 837.9989470648712 298.03593800313223 76500.80168873598 0.08314855875831491 
237.00113373326124 813.8148088271771 294.8270825739086 76896.53960311537 0.0864745011086476 
238.00113373326124 770.6499107756223 295.8444302436845 77298.92827820992 0.0864745011086476 
239.00113373326124 739.1271425619203 288.4657495004249 77697.33685451686 0.08869179600886919 
240.00113373326124 711.2235655210845 291.15256027958964 78105.32407216968 0.08869179600886919 
241.00113373326124 677.9270546890276 297.82785002169277 78523.09303473608 0.08869179600886919 
242.00113373326124 647.1722112896967 285.89492469044325 79001.07495493906 0.09201773835920155 
243.00113373326124 607.083411596057 287.00494630585723 79412.32366487019 0.08980044345898 
244.00113373326124 579.2366357648456 294.3317929931655 79833.61345279972 0.09090909090909098 
245.00113373326124 557.8458534842529 284.4021592090374 80256.72811468213 0.09201773835920155 
246.00113373326124 515.7939399563913 281.9072440029618 80680.60688716939 0.09423503325942385 
247.00113373326124 525.6156969762401 292.6197306689099 81111.65493817012 0.09423503325942387 
248.00113373326124 530.7142353148489 289.72747832635486 81542.43886749056 0.09423503325942387 
249.00113373326124 650.51296944471 286.2849557361173 81984.05217303512 0.09645232815964506 
#####################################################################
# End of data export. Simulation finished at: 2017-12-15T19:14+0000 #
#####################################################################
