#####################################################################
# Alchemist log file - simulation started at: 2017-12-15T19:04+0000 #
#####################################################################
# random = 0.0, errorLB = 2.0, trustThreshold = 0.9000000000000004
#
# The columns have the following meaning: 
# time error-fakes[Sum] error-trust[Sum] error-trust-recomm[Sum] merrdiff[Mean] 
0.0 NaN NaN NaN NaN 
1.0011337332612453 0.0 0.0 0.0 0.0 
2.0011337332612453 0.0 0.0 0.0 0.0 
3.0011337332612453 0.0 0.0 0.0 0.0 
4.001133733261245 0.0 0.0 0.0 0.0 
5.001133733261245 0.0 0.0 0.0 0.0 
6.001133733261245 0.0 0.0 0.0 0.0 
7.001133733261245 0.0 0.0 0.0 0.0 
8.001133733261245 0.0 0.0 0.0 0.0 
9.001133733261245 0.0 0.0 0.0 0.0 
10.001133733261245 0.0 0.0 0.0 0.0 
11.001133733261245 0.0 0.0 0.0 0.0 
12.001133733261245 0.0 0.0 0.0 0.0 
13.001133733261245 0.0 0.0 0.0 0.0 
14.001133733261245 0.0 0.0 0.0 0.0 
15.001133733261245 0.0 0.0 0.0 0.0 
16.001133733261245 0.0 0.0 0.0 0.0 
17.001133733261245 0.0 0.0 0.0 0.0 
18.001133733261245 0.0 0.0 0.0 0.0 
19.001133733261245 0.0 0.0 0.0 0.0 
20.001133733261245 0.0 0.0 0.0 0.0 
21.001133733261245 0.0 0.0 0.0 0.0 
22.001133733261245 0.0 0.0 0.0 0.0 
23.001133733261245 0.0 0.0 0.0 0.0 
24.001133733261245 0.0 0.0 0.0 0.0 
25.001133733261245 0.0 0.0 0.0 0.0 
26.001133733261245 0.0 0.0 0.0 0.0 
27.001133733261245 0.0 0.0 0.0 0.0 
28.001133733261245 0.0 0.0 0.0 0.0 
29.001133733261245 0.0 0.0 0.0 0.0 
30.001133733261245 0.0 0.0 0.0 0.0 
31.001133733261245 0.0 0.0 0.0 0.0 
32.00113373326124 0.0 0.0 0.0 0.0 
33.00113373326124 0.0 0.0 0.0 0.0 
34.00113373326124 0.0 0.0 0.0 0.0 
35.00113373326124 0.0 0.0 0.0 0.0 
36.00113373326124 0.0 0.0 0.0 0.0 
37.00113373326124 0.0 0.0 0.0 0.0 
38.00113373326124 0.0 0.0 0.0 0.0 
39.00113373326124 0.0 0.0 0.0 0.0 
40.00113373326124 0.0 0.0 0.0 0.0 
41.00113373326124 0.0 255.652919849277 255.652919849277 0.0 
42.00113373326124 0.0 32.317151114338884 32.317151114338884 0.018847006651884723 
43.00113373326124 0.0 27.093315912204 27.093315912204 0.0 
44.00113373326124 0.0 281.8639677976193 69.44960622437787 0.0 
45.00113373326124 0.0 281.8639677976193 101.05642287335515 0.011086474501108657 
46.00113373326124 0.0 281.8639677976193 128.34565605088522 0.011086474501108657 
47.00113373326124 0.0 281.8639677976193 148.76909169960928 0.011086474501108657 
48.00113373326124 0.0 281.8639677976193 171.58691876332875 0.011086474501108657 
49.00113373326124 0.0 351.0298977476596 204.89044311780262 0.012195121951219504 
50.0 0.0 216.66224869978564 239.78923101225575 0.014412416851441248 
51.00113373326124 0.0 200.76269212571074 288.1663410177602 0.002217294900221745 
52.00113373326124 22.606225860512282 229.40328862607035 349.36496910955657 0.002217294900221745 
53.00113373326124 97.63265360479376 253.3008771958457 406.7216563834272 0.002217294900221745 
54.00113373326124 205.9048027934773 280.17244702611106 491.7519024661896 0.00443458980044349 
55.00113373326124 437.9438108059596 321.19809997074617 585.9808053367216 0.0011086474501108726 
56.00113373326124 658.506196425891 366.49983245799683 697.1031947275935 0.002217294900221745 
57.00113373326124 909.7684959835265 413.3637040864801 823.0924732564043 0.0011086474501108726 
58.00113373326124 1176.089243676738 478.14580613120756 966.7059291198574 0.002217294900221745 
59.00113373326124 1319.2839660080376 555.1069370212532 1127.573736301353 0.002217294900221745 
60.00113373326124 1410.281838952548 644.2717253207959 1314.9874657213493 0.002217294900221745 
61.00113373326124 1440.9837584044076 741.5430802422217 1508.9776212431561 0.002217294900221745 
62.00113373326124 1439.690970239497 851.7519938837623 1726.4510459073892 0.002217294900221745 
63.00113373326124 1395.7700974167972 969.5109062174732 1970.3580874431061 0.0011086474501108726 
64.00113373326124 1344.5123794743517 1118.3741697169285 2220.744276441476 0.002217294900221745 
65.00113373326124 1273.770512226172 1276.393419864494 2503.2531218604945 0.002217294900221745 
66.00113373326124 1198.625351601518 1456.843932651215 2796.657800339859 0.002217294900221745 
67.00113373326124 1117.307993419069 1658.622984809371 3115.051865543941 0.0033259423503325457 
68.00113373326124 1025.8786058239693 1869.4994669487976 3441.9218270015995 0.0033259423503325457 
69.00113373326124 944.8269786640633 2111.654592893455 3780.08450903466 0.002217294900221745 
70.00113373326124 851.5875391136968 2361.8037345963367 4144.363863537456 0.002217294900221745 
71.00113373326124 782.8863544138358 2633.408299000813 4508.2662532975355 0.0033259423503325457 
72.00113373326124 708.1539334231979 2926.6661407179763 4897.143721045679 0.0033259423503325457 
73.00113373326124 681.4136704289658 3236.7980491544763 5280.877961021618 0.002217294900221745 
74.00113373326124 632.2242507332977 3570.5747013842447 5692.599628923937 0.002217294900221745 
75.00113373326124 590.8763812213572 3902.580256067319 6090.7669241154845 0.0033259423503325457 
76.00113373326124 551.4208279881423 4270.144997393534 6510.002693617446 0.002217294900221745 
77.00113373326124 511.7124092212063 4628.72327562381 6936.962882266251 0.002217294900221745 
78.00113373326124 478.6278434559255 5015.347538081849 7364.2299681297 0.0033259423503325665 
79.00113373326124 436.4974009395313 5400.842497642103 7804.967598518539 0.004434589800443486 
80.00113373326124 403.6654790713946 5806.7750290867725 8237.051050556796 0.0033259423503325626 
81.00113373326124 366.90121717330965 6204.043685602834 8698.47276358337 0.004434589800443485 
82.00113373326124 327.15304381578966 6616.373966839247 9137.397108180177 0.006651884700665197 
83.00113373326124 307.3706639568749 7049.26913437735 9597.399909367798 0.00554323725055433 
84.00113373326124 270.9437508653496 7469.49935346308 10059.03439822109 0.00997782705099782 
85.00113373326124 245.49287743903275 7914.905682518584 10519.636689914692 0.011086474501108654 
86.00113373326124 221.88566567735973 8347.494394603316 10984.596955313938 0.01219512195121954 
87.00113373326124 194.8323523901775 8807.315286350478 11444.944608179057 0.012195121951219539 
88.00113373326124 175.63167097806124 9247.9740798783 11925.339225633605 0.013303769401330403 
89.00113373326124 157.31284299442692 9708.25191108877 12387.236641680744 0.013303769401330403 
90.00113373326124 189.6314760656203 10169.930436891807 12857.818955048813 0.01662971175166299 
91.00113373326124 222.92297260013638 10628.661885306856 13333.408394188824 0.01662971175166299 
92.00113373326124 382.9713939385465 11093.424934275024 13804.8628211505 0.013303769401330403 
93.00113373326124 517.7379145112875 11556.454551164068 14278.658955112096 0.015521064301552054 
94.00113373326124 645.1096025053846 12035.55642648202 14749.91405091233 0.01662971175166299 
95.00113373326124 830.1999366159291 12497.252412853632 15233.059143140363 0.018847006651884744 
96.00113373326124 919.331273785981 12970.811468077893 15700.691108571642 0.021064301552106344 
97.00113373326124 981.0036799608281 13446.138062181763 16174.08759456286 0.01773835920177388 
98.00113373326124 991.8479908419218 13915.25996876185 16654.131570875812 0.013303769401330403 
99.00113373326124 979.1911417556558 14390.738387006328 17124.411288972304 0.013303769401330403 
100.00113373326124 952.7034356040162 14863.478490723426 17604.151459993805 0.015521064301552054 
101.00113373326124 915.4005049647876 15346.646692001586 18074.404383838373 0.017738359201773874 
102.00113373326124 878.8572355741506 15814.200880222628 18562.165336114882 0.01662971175166299 
103.00113373326124 847.0731464440383 16286.62083618304 19029.447752601613 0.019955654101995648 
104.00113373326124 822.9633430419616 16767.491674482706 19503.534426409777 0.021064301552106344 
105.00113373326124 835.756724007041 17236.636050013763 19985.050673951675 0.015521064301552054 
106.00113373326124 832.0883727736422 17714.487414489595 20456.195717082002 0.019955654101995648 
107.00113373326124 828.5918070805297 18188.097169991437 20936.05523395782 0.021064301552106344 
108.00113373326124 835.1974586961691 18671.992665717153 21407.157069374054 0.023281596452328076 
109.00113373326124 825.6884022888029 19141.013643687125 21893.75157065741 0.018847006651884737 
110.00113373326124 810.4485110654568 19613.591902602508 22360.46735062342 0.013303769401330403 
111.00113373326124 773.3526055936608 20096.07180053363 22835.760737002867 0.013303769401330403 
112.00113373326124 741.1881940358727 20565.41103833282 23317.106846202318 0.013303769401330403 
113.00113373326124 686.3963614860215 21044.678130147917 23788.17485510541 0.013303769401330403 
114.00113373326124 634.4412474047152 21516.576311288332 24266.896639219573 0.019955654101995648 
115.00113373326124 580.4034750713686 22002.46224696768 24737.411085297706 0.018847006651884737 
116.00113373326124 543.9568579195064 22469.978580316 25223.27293489162 0.015521064301552054 
117.00113373326124 488.84963018805 22942.959797284533 25690.12515953559 0.015521064301552054 
118.00113373326124 482.35687042150767 23426.02721112381 26164.485322701625 0.019955654101995648 
119.00113373326124 484.25316038257535 23895.48765304676 26645.10296262402 0.025498891352549968 
120.00113373326124 572.2402798976535 24373.693825109993 27114.662632909814 0.018847006651884737 
121.00113373326124 654.7192872610755 24846.17729487865 27593.39844136986 0.019955654101995648 
122.00113373326124 738.0371667838344 25330.635962122786 28063.533930563535 0.025498891352549968 
123.00113373326124 862.2062600825741 25798.172484866034 28547.785066882592 0.021064301552106344 
124.00113373326124 921.7046362289342 26270.860382563726 29015.1866553481 0.02217294900221728 
125.00113373326124 956.0320568226506 26752.60840131007 29487.11545215257 0.025498891352549968 
126.00113373326124 952.2537982339843 27222.137683063273 29968.257920262935 0.025498891352549968 
127.00113373326124 947.9473469159087 27699.40638089216 30436.209901627004 0.025498891352549968 
128.00113373326124 908.8202862515394 28171.83435815809 30914.51897329695 0.025498891352549968 
129.00113373326124 873.2952957599578 28654.29607788932 31384.201508163587 0.018847006651884737 
130.00113373326124 832.6624838093983 29123.106529675482 31866.889592147698 0.019955654101995648 
131.00113373326124 788.0428063667947 29593.602058704248 32334.654110500873 0.025498891352549968 
132.00113373326124 745.5115571343297 30075.172881230068 32805.1892932955 0.025498891352549968 
133.00113373326124 691.541314483421 30542.547446794353 33286.71665764183 0.018847006651884737 
134.00113373326124 647.7765766435806 31020.221566402965 33752.65320000354 0.019955654101995648 
135.00113373326124 588.9846578265256 31492.509963126413 34231.179346556324 0.021064301552106344 
136.00113373326124 531.631794726354 31972.41570591737 34700.294512173445 0.023281596452328076 
137.00113373326124 527.8539738076772 32442.221397384194 35182.29749553989 0.025498891352549968 
138.00113373326124 528.0322630147124 32910.0579544652 35649.76448825143 0.025498891352549968 
139.00113373326124 676.9441688185126 33392.7935115965 36120.29783676303 0.025498891352549968 
140.00113373326124 804.237777610237 33857.77838452312 36602.12040426588 0.025498891352549968 
141.00113373326124 940.5812521539111 34335.643502694555 37066.559704507185 0.025498891352549968 
142.00113373326124 1131.366749987604 34807.25076338075 37546.04031896782 0.025498891352549968 
143.00113373326124 1232.7509261234322 35285.76395890121 38014.46521536558 0.025498891352549968 
144.00113373326124 1294.4220533395048 35755.73486246363 38495.3132377563 0.025498891352549968 
145.00113373326124 1329.2365566042956 36222.39465852066 38962.118900269954 0.025498891352549968 
146.00113373326124 1337.7417942621764 36704.88446069685 39432.37592160307 0.025498891352549968 
147.00113373326124 1369.7648745803726 37168.87729777116 39913.97125417775 0.025498891352549968 
148.00113373326124 1380.3672127768007 37647.18153406067 40378.72876704289 0.025498891352549968 
149.00113373326124 1387.949422787571 38117.764007382306 40857.46605685213 0.025498891352549968 
150.00113373326124 1412.1711693287768 38595.452414658685 41325.45805997012 0.025498891352549968 
151.00113373326124 1411.58269260872 39064.722380221305 41805.81735854938 0.025498891352549968 
152.00113373326124 1413.9982503874535 39531.132103892436 42272.17100588172 0.025498891352549968 
153.00113373326124 1382.3745875057755 40013.135803679186 42741.91186019567 0.025498891352549968 
154.00113373326124 1363.3563338675447 40476.38194178866 43222.96776094974 0.025498891352549968 
155.00113373326124 1318.7994494304312 40954.61990409808 43687.31504538068 0.025498891352549968 
156.00113373326124 1267.127867190214 41424.64750898978 44165.78146364966 0.025498891352549968 
157.00113373326124 1217.6262360843755 41902.200929111335 44633.292313920574 0.025498891352549968 
158.00113373326124 1157.2206569535088 42370.7999043898 45112.97007598964 0.025498891352549968 
159.00113373326124 1117.0502613238857 42836.42306382528 45579.31697414023 0.025498891352549968 
160.00113373326124 1049.107223313201 43318.53320918837 46048.20308674207 0.025498891352549968 
161.00113373326124 995.3738699675039 43780.76422901188 46528.72666673705 0.025498891352549968 
162.00113373326124 932.7065711111567 44258.56566974764 46992.29223227909 0.025498891352549968 
163.00113373326124 874.4102901462388 44727.600968161365 47470.74916102599 0.025498891352549968 
164.00113373326124 811.8629160720415 45204.8359626722 47937.09961353503 0.025498891352549968 
165.00113373326124 767.729233098482 45673.06658188986 48416.931343102304 0.025498891352549968 
166.00113373326124 736.8320807145411 46137.845887096446 48882.66110741458 0.025498891352549968 
167.00113373326124 780.1680794015546 46619.84852448466 49350.712623760606 0.025498891352549968 
168.00113373326124 817.7321738103271 47080.86567429652 49831.12669592027 0.025498891352549968 
169.00113373326124 883.4636234045934 47559.305118896744 50293.63015533749 0.025498891352549968 
170.00113373326124 967.2529890663199 48026.748056829005 50772.16412856623 0.025498891352549968 
171.00113373326124 1035.6059914838258 48504.49268022166 51236.34747851389 0.025498891352549968 
172.00113373326124 1099.9480906949616 48971.631168542604 51716.38255008055 0.025498891352549968 
173.00113373326124 1129.8411756741582 49436.08636805246 52180.79056391 0.025498891352549968 
174.00113373326124 1138.9991964991916 49917.67412916287 52648.17696138091 0.025498891352549968 
175.00113373326124 1115.282500708426 50377.69295038164 53128.85434861004 0.025498891352549968 
176.00113373326124 1092.705260823913 50856.50917677387 53590.043484266134 0.025498891352549968 
177.00113373326124 1034.4028730336952 51322.69999248649 54068.56702199343 0.025498891352549968 
178.00113373326124 974.4460973880524 51800.50212962521 54532.10595825985 0.025498891352549968 
179.00113373326124 902.9102111937087 52267.247782970415 55011.65097055865 0.025498891352549968 
180.00113373326124 833.18685295528 52731.92579883413 55474.91287147383 0.025498891352549968 
181.00113373326124 758.8157159818082 53213.349483018676 55942.35084893644 0.025498891352549968 
182.00113373326124 720.9359287224045 53672.62308936163 56422.8179116356 0.025498891352549968 
183.00113373326124 693.3005021664347 54151.54469657422 56883.52317340707 0.025498891352549968 
184.00113373326124 776.8443913399187 54617.21523694098 57362.12621122339 0.025498891352549968 
185.00113373326124 849.3322508674012 55094.73910619075 57825.588703803274 0.025498891352549968 
186.00113373326124 920.6044940249437 55560.90977615464 58304.68884251096 0.025498891352549968 
187.00113373326124 1032.1447327909902 56025.859165342335 58767.419298039575 0.025498891352549968 
188.00113373326124 1090.2455090996611 56507.29876755265 59234.973486840834 0.025498891352549968 
189.00113373326124 1123.0865260779167 56966.03766340367 59715.280516004124 0.025498891352549968 
190.00113373326124 1142.3595988575698 57444.87937261288 60175.59703133198 0.025498891352549968 
191.00113373326124 1130.734535500046 57910.389518112366 60654.25409795512 0.025498891352549968 
192.00113373326124 1106.6417142845653 58387.02636701827 61117.51146427185 0.025498891352549968 
193.00113373326124 1069.661830431151 58853.12453509458 61595.852046011525 0.025498891352549968 
194.00113373326124 1031.0414136010777 59318.06756191267 62058.34435939988 0.025498891352549968 
195.00113373326124 993.2172068020021 59799.32701045515 62526.09945832371 0.025498891352549968 
196.00113373326124 945.4885863550829 60257.74555918227 63005.88580679074 0.025498891352549968 
197.00113373326124 901.9322510348233 60736.32293617834 63465.97423444496 0.025498891352549968 
198.00113373326124 842.837033580989 61201.37175462098 63944.58208700389 0.025498891352549968 
199.00113373326124 788.8860561754152 61677.265172007275 64406.956362057914 0.025498891352549968 
200.00113373326124 719.4109339516053 62143.26153270739 64885.109075989865 0.025498891352549968 
201.00113373326124 655.5507308205977 62608.30521733266 65347.09967514418 0.025498891352549968 
202.00113373326124 588.1568673405393 63089.04677635999 65815.18613550614 0.025498891352549968 
203.00113373326124 525.9791146020418 63547.053505963675 66294.36346896499 0.025498891352549968 
204.00113373326124 462.1298057358436 64025.56570833553 66754.1358532924 0.025498891352549968 
205.00113373326124 411.2530327395519 64489.64952072247 67232.74607420959 0.025498891352549968 
206.00113373326124 401.744810639045 64965.03655062335 67694.08244634289 0.025498891352549968 
207.00113373326124 410.0335099556991 65430.93039582951 68171.83492650859 0.025498891352549968 
208.00113373326124 476.42831814864184 65896.01758967088 68633.43368006912 0.025498891352549968 
209.00113373326124 532.4447410181236 66375.99190850496 69101.98335119167 0.025498891352549968 
210.00113373326124 592.4701665599664 66833.73350880032 69580.65906108524 0.025498891352549968 
211.00113373326124 682.07876183861 67312.04472060414 70039.4216186913 0.025498891352549968 
212.00113373326124 739.2038442067021 67775.00804060443 70517.7948284268 0.025498891352549968 
213.00113373326124 762.8862075001969 68250.21541412454 70978.88601265482 0.025498891352549968 
214.00113373326124 801.0963405507575 68715.64424408761 71456.11732843878 0.025498891352549968 
215.00113373326124 810.3430201420682 69180.92897834683 71917.15921574338 0.025498891352549968 
216.00113373326124 819.1447824674068 69660.57503368791 72385.82326306052 0.025498891352549968 
217.00113373326124 832.8288838379186 70117.50424848592 72863.93099675581 0.025498891352549968 
218.00113373326124 871.3907824561614 70595.9457918036 73322.0086663513 0.025498891352549968 
219.00113373326124 899.5683313002517 71058.31418763986 73800.25232607262 0.025498891352549968 
220.00113373326124 993.527951282013 71533.33023598568 74261.273837404 0.025498891352549968 
221.00113373326124 1086.3548522120807 71998.06570939806 74737.68909542232 0.025498891352549968 
222.00113373326124 1185.776841763717 72463.7691141827 75198.33277679211 0.025498891352549968 
223.00113373326124 1318.3122512261446 72943.13190919334 75666.47187287804 0.025498891352549968 
224.00113373326124 1387.0828776040025 73399.15439162687 76143.85667315958 0.025498891352549968 
225.00113373326124 1432.9973700202934 73877.65522758107 76601.84422410518 0.025498891352549968 
226.00113373326124 1441.6924620186123 74339.70616229402 77079.64896857983 0.025498891352549968 
227.00113373326124 1439.789410207361 74814.37679671752 77540.60693977258 0.025498891352549968 
228.00113373326124 1394.3577499218986 75278.59742469914 78016.09642913754 0.025498891352549968 
229.00113373326124 1343.0546813718192 75744.37173629389 78477.7199863764 0.025498891352549968 
230.00113373326124 1272.895636758282 76222.9435425919 78944.65701971286 0.025498891352549968 
231.00113373326124 1200.515187522583 76679.15272475098 79421.23017977497 0.025498891352549968 
232.00113373326124 1128.4251392828728 77156.91019584044 79878.8208157235 0.025498891352549968 
233.00113373326124 1039.169023438484 77618.9942483519 80356.0003334965 0.025498891352549968 
234.00113373326124 968.7469411084503 78092.97648596825 80817.17582467172 0.025498891352549968 
235.00113373326124 899.6907503195376 78556.88223566898 81291.85240751627 0.025498891352549968 
236.00113373326124 837.9989470648712 79022.67170886247 81753.64812426768 0.025498891352549968 
237.00113373326124 813.8148088271771 79500.03216770478 82220.1205025043 0.025498891352549968 
238.00113373326124 770.6499107756223 79956.81326685619 82696.11927073964 0.025498891352549968 
239.00113373326124 739.1271425619203 80433.48829232765 83153.46677480296 0.025498891352549968 
240.00113373326124 711.2235655210845 80896.0371598161 83630.3056306904 0.025498891352549968 
241.00113373326124 677.9270546890276 81368.81450462558 84091.14759479658 0.025498891352549968 
242.00113373326124 647.1722112896967 81832.79540576323 84565.0402235435 0.025498891352549968 
243.00113373326124 607.083411596057 82298.3736151598 85026.62444825731 0.025498891352549968 
244.00113373326124 579.2366357648456 82774.73428015482 85492.90446264068 0.025498891352549968 
245.00113373326124 557.8458534842529 83231.43705514522 85968.67994946963 0.025498891352549968 
246.00113373326124 515.7939399563913 83708.04778399253 86425.98923861621 0.025498891352549968 
247.00113373326124 525.6156969762401 84169.89437726575 86902.96082557947 0.025498891352549968 
248.00113373326124 530.7142353148489 84641.91366141576 87362.89536603937 0.025498891352549968 
249.00113373326124 650.51296944471 85105.49576614666 87835.80070841311 0.025498891352549968 
#####################################################################
# End of data export. Simulation finished at: 2017-12-15T19:09+0000 #
#####################################################################
