#####################################################################
# Alchemist log file - simulation started at: 2017-12-15T19:23+0000 #
#####################################################################
# random = 0.0, errorLB = 3.5, trustThreshold = 0.9000000000000004
#
# The columns have the following meaning: 
# time error-fakes[Sum] error-trust[Sum] error-trust-recomm[Sum] merrdiff[Mean] 
0.0 NaN NaN NaN NaN 
1.0011337332612453 0.0 0.0 0.0 0.0 
2.0011337332612453 0.0 0.0 0.0 0.0 
3.0011337332612453 0.0 0.0 0.0 0.0 
4.001133733261245 0.0 0.0 0.0 0.0 
5.001133733261245 0.0 0.0 0.0 0.0 
6.001133733261245 0.0 0.0 0.0 0.0 
7.001133733261245 0.0 0.0 0.0 0.0 
8.001133733261245 0.0 0.0 0.0 0.0 
9.001133733261245 0.0 0.0 0.0 0.0 
10.001133733261245 0.0 0.0 0.0 0.0 
11.001133733261245 0.0 0.0 0.0 0.0 
12.001133733261245 0.0 0.0 0.0 0.0 
13.001133733261245 0.0 0.0 0.0 0.0 
14.001133733261245 0.0 0.0 0.0 0.0 
15.001133733261245 0.0 0.0 0.0 0.0 
16.001133733261245 0.0 0.0 0.0 0.0 
17.001133733261245 0.0 0.0 0.0 0.0 
18.001133733261245 0.0 0.0 0.0 0.0 
19.001133733261245 0.0 0.0 0.0 0.0 
20.001133733261245 0.0 0.0 0.0 0.0 
21.001133733261245 0.0 0.0 0.0 0.0 
22.001133733261245 0.0 0.0 0.0 0.0 
23.001133733261245 0.0 0.0 0.0 0.0 
24.001133733261245 0.0 0.0 0.0 0.0 
25.001133733261245 0.0 0.0 0.0 0.0 
26.001133733261245 0.0 0.0 0.0 0.0 
27.001133733261245 0.0 0.0 0.0 0.0 
28.001133733261245 0.0 0.0 0.0 0.0 
29.001133733261245 0.0 0.0 0.0 0.0 
30.001133733261245 0.0 0.0 0.0 0.0 
31.001133733261245 0.0 0.0 0.0 0.0 
32.00113373326124 0.0 0.0 0.0 0.0 
33.00113373326124 0.0 0.0 0.0 0.0 
34.00113373326124 0.0 0.0 0.0 0.0 
35.00113373326124 0.0 0.0 0.0 0.0 
36.00113373326124 0.0 0.0 0.0 0.0 
37.00113373326124 0.0 0.0 0.0 0.0 
38.00113373326124 0.0 0.0 0.0 0.0 
39.00113373326124 0.0 0.0 0.0 0.0 
40.00113373326124 0.0 0.0 0.0 0.0 
41.00113373326124 0.0 255.652919849277 255.652919849277 0.0 
42.00113373326124 0.0 32.317151114338884 32.317151114338884 0.0 
43.00113373326124 0.0 27.093315912204 27.093315912204 0.0 
44.00113373326124 0.0 281.8639677976193 36.690259441794396 0.0 
45.00113373326124 0.0 281.8639677976193 20.417366901931548 0.0 
46.00113373326124 0.0 281.8639677976193 20.341161450714758 0.0 
47.00113373326124 0.0 281.8639677976193 13.596830463206263 0.0 
48.00113373326124 0.0 281.8639677976193 13.695008051596485 0.0 
49.00113373326124 0.0 310.0521035751762 10.246534321202159 0.0 
50.0 0.0 112.43168736196634 10.307174957411851 0.0 
51.00113373326124 0.0 78.13530543314924 10.441916251308864 0.0011086474501108726 
52.00113373326124 22.606225860512282 74.5840997473559 6.880206327591917 0.0011086474501108726 
53.00113373326124 97.63265360479376 50.53820041550138 7.66158063897236 0.0011086474501108726 
54.00113373326124 205.9048027934773 50.449200272893926 6.6646851367881705 0.0011086474501108726 
55.00113373326124 437.9438108059596 38.68096940624803 5.994726647393952 0.0 
56.00113373326124 658.506196425891 37.101022598309825 6.118749830043329 0.0011086474501108726 
57.00113373326124 909.7684959835265 31.491897631285433 3.2800853531537744 0.0 
58.00113373326124 1176.089243676738 28.140431517674624 4.4016742046281685 0.0011086474501108726 
59.00113373326124 1319.2839660080376 27.229996950113787 2.335858778494881 0.0011086474501108726 
60.00113373326124 1410.281838952548 20.44846822011081 3.421587064919443 0.0011086474501108726 
61.00113373326124 1440.9837584044076 19.328245945077484 1.9184684036001798 0.0011086474501108726 
62.00113373326124 1439.690970239497 15.432195261630586 1.1561042755941138 0.0011086474501108726 
63.00113373326124 1395.7700974167972 13.041449236825464 1.063310616984257 0.0 
64.00113373326124 1344.5123794743517 12.620666040443039 0.049679843772171495 0.0011086474501108726 
65.00113373326124 1273.770512226172 8.894614610954974 0.0 0.0011086474501108726 
66.00113373326124 1198.625351601518 7.491007585901283 0.0 0.0011086474501108726 
67.00113373326124 1117.307993419069 4.511369276426352 0.0 0.0011086474501108726 
68.00113373326124 1025.8786058239693 3.048160591267443 0.0 0.0011086474501108726 
69.00113373326124 944.8269786640633 1.9214057596195566 0.0 0.0011086474501108726 
70.00113373326124 851.5875391136968 0.7228122770237704 0.0 0.0011086474501108726 
71.00113373326124 782.8863544138358 0.4848127135111291 0.0 0.0011086474501108726 
72.00113373326124 708.1539334231979 0.031060407512377708 0.0 0.0011086474501108726 
73.00113373326124 681.4136704289658 0.0 0.0 0.0011086474501108726 
74.00113373326124 632.2242507332977 0.0 0.0 0.0011086474501108726 
75.00113373326124 590.8763812213572 0.0 0.0 0.0 
76.00113373326124 551.4208279881423 0.0 0.0 0.0011086474501108726 
77.00113373326124 511.7124092212063 0.0 0.0 0.0 
78.00113373326124 478.6278434559255 0.0 0.0 0.0011086474501108726 
79.00113373326124 436.4974009395313 0.0 0.0 0.0 
80.00113373326124 403.6654790713946 0.0 0.0 0.0 
81.00113373326124 366.90121717330965 0.0 0.0 0.0 
82.00113373326124 327.15304381578966 0.0 0.0 0.0011086474501108726 
83.00113373326124 307.3706639568749 0.0 0.0 0.0011086474501108726 
84.00113373326124 270.9437508653496 0.0 0.0 0.0 
85.00113373326124 245.49287743903275 0.0 0.0 0.0011086474501108726 
86.00113373326124 221.88566567735973 0.0 0.0 0.0 
87.00113373326124 194.8323523901775 0.0 0.0 0.0011086474501108726 
88.00113373326124 175.63167097806124 0.0 0.0 0.0011086474501108726 
89.00113373326124 157.31284299442692 0.0 0.0 0.0011086474501108726 
90.00113373326124 189.6314760656203 0.0 0.0 0.0011086474501108726 
91.00113373326124 222.92297260013638 0.0 0.0 0.0 
92.00113373326124 382.9713939385465 0.0 0.0 0.0011086474501108726 
93.00113373326124 517.7379145112875 0.0 0.0 0.0011086474501108726 
94.00113373326124 645.1096025053846 0.0 0.0 0.0 
95.00113373326124 830.1999366159291 0.0 0.0 0.0011086474501108726 
96.00113373326124 919.331273785981 0.0 0.0 0.0011086474501108726 
97.00113373326124 981.0036799608281 0.0 0.0 0.0011086474501108726 
98.00113373326124 991.8479908419218 0.0 0.0 0.0011086474501108726 
99.00113373326124 979.1911417556558 0.0 0.0 0.0 
100.00113373326124 952.7034356040162 0.0 0.0 0.0 
101.00113373326124 915.4005049647876 0.0 0.0 0.0 
102.00113373326124 878.8572355741506 0.0 0.0 0.0 
103.00113373326124 847.0731464440383 0.0 0.0 0.0011086474501108726 
104.00113373326124 822.9633430419616 0.0 0.0 0.0 
105.00113373326124 835.756724007041 0.0 0.0 0.0 
106.00113373326124 832.0883727736422 0.0 0.0 0.0011086474501108726 
107.00113373326124 828.5918070805297 0.0 0.0 0.0 
108.00113373326124 835.1974586961691 0.0 0.0 0.0011086474501108726 
109.00113373326124 825.6884022888029 0.0 0.0 0.0011086474501108726 
110.00113373326124 810.4485110654568 0.0 0.0 0.0011086474501108726 
111.00113373326124 773.3526055936608 0.0 0.0 0.0011086474501108726 
112.00113373326124 741.1881940358727 0.0 0.0 0.0011086474501108726 
113.00113373326124 686.3963614860215 0.0 0.0 0.0011086474501108726 
114.00113373326124 634.4412474047152 0.0 0.0 0.0011086474501108726 
115.00113373326124 580.4034750713686 0.0 0.0 0.0011086474501108726 
116.00113373326124 543.9568579195064 0.0 0.0 0.0011086474501108726 
117.00113373326124 488.84963018805 0.0 0.0 0.0011086474501108726 
118.00113373326124 482.35687042150767 0.0 0.0 0.0011086474501108726 
119.00113373326124 484.25316038257535 0.0 0.0 0.0011086474501108726 
120.00113373326124 572.2402798976535 0.0 0.0 0.0011086474501108726 
121.00113373326124 654.7192872610755 0.0 0.0 0.0011086474501108726 
122.00113373326124 738.0371667838344 0.0 0.0 0.0 
123.00113373326124 862.2062600825741 0.0 0.0 0.0011086474501108726 
124.00113373326124 921.7046362289342 0.0 0.0 0.0 
125.00113373326124 956.0320568226506 0.0 0.0 0.0011086474501108726 
126.00113373326124 952.2537982339843 0.0 0.0 0.0011086474501108726 
127.00113373326124 947.9473469159087 0.0 0.0 0.0011086474501108726 
128.00113373326124 908.8202862515394 0.0 0.0 0.0011086474501108726 
129.00113373326124 873.2952957599578 0.0 0.0 0.0011086474501108726 
130.00113373326124 832.6624838093983 0.0 0.0 0.0011086474501108726 
131.00113373326124 788.0428063667947 0.0 0.0 0.0011086474501108726 
132.00113373326124 745.5115571343297 0.0 0.0 0.0011086474501108726 
133.00113373326124 691.541314483421 0.0 0.0 0.0011086474501108726 
134.00113373326124 647.7765766435806 0.0 0.0 0.0 
135.00113373326124 588.9846578265256 0.0 0.0 0.0011086474501108726 
136.00113373326124 531.631794726354 0.0 0.0 0.0 
137.00113373326124 527.8539738076772 0.0 0.0 0.0011086474501108726 
138.00113373326124 528.0322630147124 0.0 0.0 0.0 
139.00113373326124 676.9441688185126 0.0 0.0 0.0 
140.00113373326124 804.237777610237 0.0 0.0 0.0011086474501108726 
141.00113373326124 940.5812521539111 0.0 0.0 0.0011086474501108726 
142.00113373326124 1131.366749987604 0.0 0.0 0.0011086474501108726 
143.00113373326124 1232.7509261234322 0.0 0.0 0.0011086474501108726 
144.00113373326124 1294.4220533395048 0.0 0.0 0.0 
145.00113373326124 1329.2365566042956 0.0 0.0 0.0011086474501108726 
146.00113373326124 1337.7417942621764 0.0 0.0 0.0011086474501108726 
147.00113373326124 1369.7648745803726 0.0 0.0 0.0 
148.00113373326124 1380.3672127768007 0.0 0.0 0.0011086474501108726 
149.00113373326124 1387.949422787571 0.0 0.0 0.0011086474501108726 
150.00113373326124 1412.1711693287768 0.0 0.0 0.0011086474501108726 
151.00113373326124 1411.58269260872 0.0 0.0 0.0011086474501108726 
152.00113373326124 1413.9982503874535 0.0 0.0 0.0011086474501108726 
153.00113373326124 1382.3745875057755 0.0 0.0 0.0011086474501108726 
154.00113373326124 1363.3563338675447 0.0 0.0 0.0011086474501108726 
155.00113373326124 1318.7994494304312 0.0 0.0 0.0011086474501108726 
156.00113373326124 1267.127867190214 0.0 0.0 0.0011086474501108726 
157.00113373326124 1217.6262360843755 0.0 0.0 0.0011086474501108726 
158.00113373326124 1157.2206569535088 0.0 0.0 0.0 
159.00113373326124 1117.0502613238857 0.0 0.0 0.0 
160.00113373326124 1049.107223313201 0.0 0.0 0.0 
161.00113373326124 995.3738699675039 0.0 0.0 0.0011086474501108726 
162.00113373326124 932.7065711111567 0.0 0.0 0.0011086474501108726 
163.00113373326124 874.4102901462388 0.0 0.0 0.0 
164.00113373326124 811.8629160720415 0.0 0.0 0.0 
165.00113373326124 767.729233098482 0.0 0.0 0.0011086474501108726 
166.00113373326124 736.8320807145411 0.0 0.0 0.0011086474501108726 
167.00113373326124 780.1680794015546 0.0 0.0 0.0011086474501108726 
168.00113373326124 817.7321738103271 0.0 0.0 0.0011086474501108726 
169.00113373326124 883.4636234045934 0.0 0.0 0.0 
170.00113373326124 967.2529890663199 0.0 0.0 0.0011086474501108726 
171.00113373326124 1035.6059914838258 0.0 0.0 0.0011086474501108726 
172.00113373326124 1099.9480906949616 0.0 0.0 0.0 
173.00113373326124 1129.8411756741582 0.0 0.0 0.0 
174.00113373326124 1138.9991964991916 0.0 0.0 0.0011086474501108726 
175.00113373326124 1115.282500708426 0.0 0.0 0.0011086474501108726 
176.00113373326124 1092.705260823913 0.0 0.0 0.0011086474501108726 
177.00113373326124 1034.4028730336952 0.0 0.0 0.0011086474501108726 
178.00113373326124 974.4460973880524 0.0 0.0 0.0011086474501108726 
179.00113373326124 902.9102111937087 0.0 0.0 0.0011086474501108726 
180.00113373326124 833.18685295528 0.0 0.0 0.0011086474501108726 
181.00113373326124 758.8157159818082 0.0 0.0 0.0 
182.00113373326124 720.9359287224045 0.0 0.0 0.0011086474501108726 
183.00113373326124 693.3005021664347 0.0 0.0 0.0011086474501108726 
184.00113373326124 776.8443913399187 0.0 0.0 0.0011086474501108726 
185.00113373326124 849.3322508674012 0.0 0.0 0.0011086474501108726 
186.00113373326124 920.6044940249437 0.0 0.0 0.0011086474501108726 
187.00113373326124 1032.1447327909902 0.0 0.0 0.0 
188.00113373326124 1090.2455090996611 0.0 0.0 0.0011086474501108726 
189.00113373326124 1123.0865260779167 0.0 0.0 0.0011086474501108726 
190.00113373326124 1142.3595988575698 0.0 0.0 0.0011086474501108726 
191.00113373326124 1130.734535500046 0.0 0.0 0.0011086474501108726 
192.00113373326124 1106.6417142845653 0.0 0.0 0.0011086474501108726 
193.00113373326124 1069.661830431151 0.0 0.0 0.0011086474501108726 
194.00113373326124 1031.0414136010777 0.0 0.0 0.0011086474501108726 
195.00113373326124 993.2172068020021 0.0 0.0 0.0 
196.00113373326124 945.4885863550829 0.0 0.0 0.0011086474501108726 
197.00113373326124 901.9322510348233 0.0 0.0 0.0 
198.00113373326124 842.837033580989 0.0 0.0 0.0011086474501108726 
199.00113373326124 788.8860561754152 0.0 0.0 0.0011086474501108726 
200.00113373326124 719.4109339516053 0.0 0.0 0.0 
201.00113373326124 655.5507308205977 0.0 0.0 0.0011086474501108726 
202.00113373326124 588.1568673405393 0.0 0.0 0.0011086474501108726 
203.00113373326124 525.9791146020418 0.0 0.0 0.0 
204.00113373326124 462.1298057358436 0.0 0.0 0.0011086474501108726 
205.00113373326124 411.2530327395519 0.0 0.0 0.0011086474501108726 
206.00113373326124 401.744810639045 0.0 0.0 0.0011086474501108726 
207.00113373326124 410.0335099556991 0.0 0.0 0.0011086474501108726 
208.00113373326124 476.42831814864184 0.0 0.0 0.0011086474501108726 
209.00113373326124 532.4447410181236 0.0 0.0 0.0011086474501108726 
210.00113373326124 592.4701665599664 0.0 0.0 0.0011086474501108726 
211.00113373326124 682.07876183861 0.0 0.0 0.0 
212.00113373326124 739.2038442067021 0.0 0.0 0.0011086474501108726 
213.00113373326124 762.8862075001969 0.0 0.0 0.0011086474501108726 
214.00113373326124 801.0963405507575 0.0 0.0 0.0 
215.00113373326124 810.3430201420682 0.0 0.0 0.0011086474501108726 
216.00113373326124 819.1447824674068 0.0 0.0 0.0011086474501108726 
217.00113373326124 832.8288838379186 0.0 0.0 0.0011086474501108726 
218.00113373326124 871.3907824561614 0.0 0.0 0.0011086474501108726 
219.00113373326124 899.5683313002517 0.0 0.0 0.0011086474501108726 
220.00113373326124 993.527951282013 0.0 0.0 0.0011086474501108726 
221.00113373326124 1086.3548522120807 0.0 0.0 0.0011086474501108726 
222.00113373326124 1185.776841763717 0.0 0.0 0.0011086474501108726 
223.00113373326124 1318.3122512261446 0.0 0.0 0.0 
224.00113373326124 1387.0828776040025 0.0 0.0 0.0 
225.00113373326124 1432.9973700202934 0.0 0.0 0.0011086474501108726 
226.00113373326124 1441.6924620186123 0.0 0.0 0.0011086474501108726 
227.00113373326124 1439.789410207361 0.0 0.0 0.0011086474501108726 
228.00113373326124 1394.3577499218986 0.0 0.0 0.0 
229.00113373326124 1343.0546813718192 0.0 0.0 0.0 
230.00113373326124 1272.895636758282 0.0 0.0 0.0011086474501108726 
231.00113373326124 1200.515187522583 0.0 0.0 0.0 
232.00113373326124 1128.4251392828728 0.0 0.0 0.0011086474501108726 
233.00113373326124 1039.169023438484 0.0 0.0 0.0011086474501108726 
234.00113373326124 968.7469411084503 0.0 0.0 0.0011086474501108726 
235.00113373326124 899.6907503195376 0.0 0.0 0.0011086474501108726 
236.00113373326124 837.9989470648712 0.0 0.0 0.0011086474501108726 
237.00113373326124 813.8148088271771 0.0 0.0 0.0011086474501108726 
238.00113373326124 770.6499107756223 0.0 0.0 0.0011086474501108726 
239.00113373326124 739.1271425619203 0.0 0.0 0.0011086474501108726 
240.00113373326124 711.2235655210845 0.0 0.0 0.0011086474501108726 
241.00113373326124 677.9270546890276 0.0 0.0 0.0011086474501108726 
242.00113373326124 647.1722112896967 0.0 0.0 0.0011086474501108726 
243.00113373326124 607.083411596057 0.0 0.0 0.0011086474501108726 
244.00113373326124 579.2366357648456 0.0 0.0 0.0011086474501108726 
245.00113373326124 557.8458534842529 0.0 0.0 0.0 
246.00113373326124 515.7939399563913 0.0 0.0 0.0 
247.00113373326124 525.6156969762401 0.0 0.0 0.0011086474501108726 
248.00113373326124 530.7142353148489 0.0 0.0 0.0011086474501108726 
249.00113373326124 650.51296944471 0.0 0.0 0.0011086474501108726 
#####################################################################
# End of data export. Simulation finished at: 2017-12-15T19:28+0000 #
#####################################################################
