#####################################################################
# Alchemist log file - simulation started at: 2017-12-15T20:12+0000 #
#####################################################################
# random = 1.0, errorLB = 3.5, trustThreshold = 0.8500000000000003
#
# The columns have the following meaning: 
# time error-fakes[Sum] error-trust[Sum] error-trust-recomm[Sum] merrdiff[Mean] 
0.0 NaN NaN NaN NaN 
1.0018431556818637 0.0 0.0 0.0 0.0 
2.001843155681864 0.0 0.0 0.0 0.0 
3.001843155681864 0.0 0.0 0.0 0.0 
4.001843155681864 0.0 0.0 0.0 0.0 
5.001843155681864 0.0 0.0 0.0 0.0 
6.001843155681864 0.0 0.0 0.0 0.0 
7.001843155681864 0.0 0.0 0.0 0.0 
8.001843155681865 0.0 0.0 0.0 0.0 
9.001843155681865 0.0 0.0 0.0 0.0 
10.001843155681865 0.0 0.0 0.0 0.0 
11.001843155681865 0.0 0.0 0.0 0.0 
12.001843155681865 0.0 0.0 0.0 0.0 
13.001843155681865 0.0 0.0 0.0 0.0 
14.001843155681865 0.0 0.0 0.0 0.0 
15.001843155681865 0.0 0.0 0.0 0.0 
16.001843155681865 0.0 0.0 0.0 0.0 
17.001843155681865 0.0 0.0 0.0 0.0 
18.001843155681865 0.0 0.0 0.0 0.0 
19.001843155681865 0.0 0.0 0.0 0.0 
20.001843155681865 0.0 0.0 0.0 0.0 
21.001843155681865 0.0 0.0 0.0 0.0 
22.001843155681865 0.0 0.0 0.0 0.0 
23.001843155681865 0.0 0.0 0.0 0.0 
24.001843155681865 0.0 0.0 0.0 0.0 
25.001843155681865 0.0 0.0 0.0 0.0 
26.001843155681865 0.0 0.0 0.0 0.0 
27.001843155681865 0.0 0.0 0.0 0.0 
28.001843155681865 0.0 0.0 0.0 0.0 
29.001843155681865 0.0 0.0 0.0 0.0 
30.001843155681865 0.0 0.0 0.0 0.0 
31.001843155681865 0.0 0.0 0.0 0.0 
32.00184315568187 0.0 0.0 0.0 0.0 
33.00184315568187 0.0 0.0 0.0 0.0 
34.00184315568187 0.0 0.0 0.0 0.0 
35.00184315568187 0.0 0.0 0.0 0.0 
36.00184315568187 0.0 0.0 0.0 0.0 
37.00184315568187 0.0 0.0 0.0 0.0 
38.00184315568187 0.0 0.0 0.0 0.0 
39.00184315568187 0.0 0.0 0.0 0.0 
40.00184315568187 0.0 0.0 0.0 0.0 
41.00184315568187 0.0 272.61438657892506 272.61438657892506 0.0 
42.00184315568187 0.0 37.497896507068575 37.497896507068575 0.0 
43.00184315568187 0.0 26.48144814445503 26.48144814445503 0.0 
44.00184315568187 0.0 266.710823460921 20.900465195375013 0.0 
45.00184315568187 0.0 313.8089440191611 14.270802837322611 0.0 
46.00184315568187 0.0 116.06858741418027 13.08224365579084 0.0 
47.00184315568187 0.0 81.29997334319522 8.678265173575378 0.0 
48.00184315568187 0.0 70.98009231314714 7.898605024196465 0.0 
49.00184315568187 0.0 55.51565511224217 6.351271011670339 0.0 
50.0 0.0 49.067717262692206 6.063885631458529 0.0 
51.00184315568187 0.007126297032646889 37.18342672377689 4.414378608866738 0.0011086474501108726 
52.00184315568187 4.641264320248689 36.10180134512741 9.237797505699671 0.0 
53.00184315568187 5.743050182464977 33.598844988589576 9.87354743658974 0.0011086474501108726 
54.00184315568187 17.892729663557894 38.79183760016052 21.062941996955463 0.0011086474501108726 
55.00184315568187 27.913200205941628 41.880585343880426 26.301913140012147 0.0 
56.00184315568187 41.29832369054931 47.85447682400704 32.458451000858645 0.0 
57.00184315568187 62.170409994466674 53.85485115797921 41.934568714325266 0.0011086474501108726 
58.00184315568187 77.60196843949149 59.2122457783544 50.01834913365785 0.0011086474501108726 
59.00184315568187 82.46986206412875 53.755967006117075 46.560251238595114 0.0011086474501108726 
60.00184315568187 90.07314528051903 48.83248664046839 43.3232270323219 0.0011086474501108726 
61.00184315568187 147.52275956802046 42.106896641560056 37.15490914190556 0.0011086474501108726 
62.00184315568187 229.50500975728647 31.129940239205613 27.993021955060964 0.0 
63.00184315568187 436.8047747759502 22.956649242366193 20.55819293091184 0.0011086474501108726 
64.00184315568187 639.9915998999512 14.871799816199825 13.398735551836673 0.0011086474501108726 
65.00184315568187 859.1559707152984 7.831600410541956 7.547713912421635 0.0 
66.00184315568187 1077.8947864529255 3.634061434314159 3.587606825467642 0.0011086474501108726 
67.00184315568187 1288.4813826561651 0.8712003292431802 0.8712003292431802 0.0 
68.00184315568187 1384.0463074634959 0.15775001887437767 0.15775001887437767 0.0011086474501108726 
69.00184315568187 1440.1931898720977 0.07126297032645468 0.07126297032645468 0.0011086474501108726 
70.00184315568187 1438.4370677587247 0.07126297032645468 0.07126297032645468 0.0011086474501108726 
71.00184315568187 1412.7911331213666 0.07126297032645468 0.07126297032645468 0.0011086474501108726 
72.00184315568187 1368.1873608509673 0.07126297032645468 0.07126297032645468 0.0011086474501108726 
73.00184315568187 1322.109933297736 0.07126297032645468 0.07126297032645468 0.0011086474501108726 
74.00184315568187 1259.7490701430104 0.07126297032645468 0.07126297032645468 0.0011086474501108726 
75.00184315568187 1191.157806762961 0.07126297032645468 0.07126297032645468 0.0011086474501108726 
76.00184315568187 1136.2205967978045 0.07126297032645468 0.07126297032645468 0.0011086474501108726 
77.00184315568187 1084.0541441779267 0.07126297032645468 0.07126297032645468 0.0 
78.00184315568187 1071.0546481931074 0.07126297032645468 0.07126297032645468 0.0 
79.00184315568187 1049.6942442123614 0.07126297032645468 0.07126297032645468 0.0011086474501108726 
80.00184315568187 1029.6547482613314 0.07126297032645468 0.07126297032645468 0.0011086474501108726 
81.00184315568187 1005.8031766957063 0.07126297032645468 0.07126297032645468 0.0011086474501108726 
82.00184315568187 976.8735337808524 0.07126297032645468 0.07126297032645468 0.0011086474501108726 
83.00184315568187 947.3194558640463 0.07126297032645468 0.07126297032645468 0.0011086474501108726 
84.00184315568187 901.7632168771028 0.07126297032645468 0.07126297032645468 0.0011086474501108726 
85.00184315568187 855.3354720769536 0.07126297032645468 0.07126297032645468 0.0011086474501108726 
86.00184315568187 796.449602964978 0.07126297032645468 0.07126297032645468 0.0 
87.00184315568187 736.6162906531813 0.07126297032645468 0.07126297032645468 0.0 
88.00184315568187 675.6358982240209 0.07126297032645468 0.07126297032645468 0.0011086474501108726 
89.00184315568187 614.1408615512049 0.07126297032645468 0.07126297032645468 0.0011086474501108726 
90.00184315568187 560.2877671042357 0.07126297032645468 0.07126297032645468 0.0 
91.00184315568187 500.065791225799 0.07126297032645468 0.07126297032645468 0.0011086474501108726 
92.00184315568187 446.6888700155691 0.07126297032645468 0.07126297032645468 0.0011086474501108726 
93.00184315568187 388.33468087635663 0.07126297032645468 0.07126297032645468 0.0011086474501108726 
94.00184315568187 339.2332001527887 0.07126297032645468 0.07126297032645468 0.0011086474501108726 
95.00184315568187 311.86875599828124 0.07126297032645468 0.07126297032645468 0.0011086474501108726 
96.00184315568187 298.2723095097108 0.07126297032645468 0.07126297032645468 0.0011086474501108726 
97.00184315568187 330.60281858259884 0.07126297032645468 0.07126297032645468 0.0011086474501108726 
98.00184315568187 359.2208483861929 0.07126297032645468 0.07126297032645468 0.0011086474501108726 
99.00184315568187 395.9723019370823 0.07126297032645468 0.07126297032645468 0.0011086474501108726 
100.00184315568187 462.3283023550716 0.07126297032645468 0.07126297032645468 0.0 
101.00184315568187 517.4694152293491 0.07126297032645468 0.07126297032645468 0.0011086474501108726 
102.00184315568187 540.5514390583288 0.07126297032645468 0.07126297032645468 0.0 
103.00184315568187 558.5244017531239 0.07126297032645468 0.07126297032645468 0.0 
104.00184315568187 582.6453658757184 0.07126297032645468 0.07126297032645468 0.0011086474501108726 
105.00184315568187 625.5994625927041 0.07126297032645468 0.07126297032645468 0.0 
106.00184315568187 730.294117970229 0.07126297032645468 0.07126297032645468 0.0 
107.00184315568187 839.5923931056617 0.07126297032645468 0.07126297032645468 0.0011086474501108726 
108.00184315568187 954.4113740242583 0.07126297032645468 0.07126297032645468 0.0011086474501108726 
109.00184315568187 1077.5433620139263 0.07126297032645468 0.07126297032645468 0.0011086474501108726 
110.00184315568187 1203.806658460155 0.07126297032645468 0.07126297032645468 0.0011086474501108726 
111.00184315568187 1290.3558954734124 0.07126297032645468 0.07126297032645468 0.0011086474501108726 
112.00184315568187 1350.0776848710045 0.07126297032645468 0.07126297032645468 0.0011086474501108726 
113.00184315568187 1374.6213234972195 0.07126297032645468 0.07126297032645468 0.0011086474501108726 
114.00184315568187 1378.4068945590127 0.07126297032645468 0.07126297032645468 0.0011086474501108726 
115.00184315568187 1359.697178795321 0.07126297032645468 0.07126297032645468 0.0011086474501108726 
116.00184315568187 1336.6303735992701 0.07126297032645468 0.07126297032645468 0.0011086474501108726 
117.00184315568187 1290.7111988516597 0.07126297032645468 0.07126297032645468 0.0 
118.00184315568187 1249.309688664786 0.07126297032645468 0.07126297032645468 0.0011086474501108726 
119.00184315568187 1200.377333000186 0.07126297032645468 0.07126297032645468 0.0011086474501108726 
120.00184315568187 1161.7979539005282 0.07126297032645468 0.07126297032645468 0.0011086474501108726 
121.00184315568187 1118.7320904985963 0.07126297032645468 0.07126297032645468 0.0 
122.00184315568187 1076.949412247842 0.07126297032645468 0.07126297032645468 0.0011086474501108726 
123.00184315568187 1035.7915635487143 0.07126297032645468 0.07126297032645468 0.0011086474501108726 
124.00184315568187 999.0938514914214 0.07126297032645468 0.07126297032645468 0.0011086474501108726 
125.00184315568187 980.3912205668271 0.07126297032645468 0.07126297032645468 0.0011086474501108726 
126.00184315568187 973.925491354006 0.07126297032645468 0.07126297032645468 0.0 
127.00184315568187 1025.8366915389824 0.07126297032645468 0.07126297032645468 0.0 
128.00184315568185 1073.544149908886 0.07126297032645468 0.07126297032645468 0.0 
129.00184315568185 1140.4627968825441 0.07126297032645468 0.07126297032645468 0.0011086474501108726 
130.00184315568185 1192.671192892484 0.07126297032645468 0.07126297032645468 0.0011086474501108726 
131.00184315568185 1244.7437722749926 0.07126297032645468 0.07126297032645468 0.0011086474501108726 
132.00184315568185 1269.9553631773636 0.07126297032645468 0.07126297032645468 0.0011086474501108726 
133.00184315568185 1264.1892909072699 0.07126297032645468 0.07126297032645468 0.0011086474501108726 
134.00184315568185 1246.3403445578454 0.07126297032645468 0.07126297032645468 0.0011086474501108726 
135.00184315568185 1196.5665595183623 0.07126297032645468 0.07126297032645468 0.0 
136.00184315568185 1144.5700128865135 0.07126297032645468 0.07126297032645468 0.0 
137.00184315568185 1079.3477436177243 0.07126297032645468 0.07126297032645468 0.0011086474501108726 
138.00184315568185 1004.3932609021176 0.07126297032645468 0.07126297032645468 0.0011086474501108726 
139.00184315568185 938.1320836088863 0.07126297032645468 0.07126297032645468 0.0011086474501108726 
140.00184315568185 859.8603164060381 0.07126297032645468 0.07126297032645468 0.0 
141.00184315568185 799.6679602864428 0.07126297032645468 0.07126297032645468 0.0011086474501108726 
142.00184315568185 751.4957978671854 0.07126297032645468 0.07126297032645468 0.0011086474501108726 
143.00184315568185 728.8206172747524 0.07126297032645468 0.07126297032645468 0.0011086474501108726 
144.00184315568185 756.8468167341326 0.07126297032645468 0.07126297032645468 0.0011086474501108726 
145.00184315568185 788.5073824864642 0.07126297032645468 0.07126297032645468 0.0011086474501108726 
146.00184315568185 824.6703192304248 0.07126297032645468 0.07126297032645468 0.0 
147.00184315568185 881.1406368256008 0.07126297032645468 0.07126297032645468 0.0011086474501108726 
148.00184315568185 950.4705880666767 0.07126297032645468 0.07126297032645468 0.0011086474501108726 
149.00184315568185 1029.7351379083211 0.07126297032645468 0.07126297032645468 0.0011086474501108726 
150.00184315568185 1093.930624471303 0.07126297032645468 0.07126297032645468 0.0011086474501108726 
151.00184315568185 1155.9911524956824 0.07126297032645468 0.07126297032645468 0.0011086474501108726 
152.00184315568185 1203.847133499014 0.07126297032645468 0.07126297032645468 0.0011086474501108726 
153.00184315568185 1251.439672408927 0.07126297032645468 0.07126297032645468 0.0011086474501108726 
154.00184315568185 1298.1713441816382 0.07126297032645468 0.07126297032645468 0.0011086474501108726 
155.00184315568185 1325.366934843058 0.07126297032645468 0.07126297032645468 0.0011086474501108726 
156.00184315568185 1347.4903850454343 0.07126297032645468 0.07126297032645468 0.0011086474501108726 
157.00184315568185 1348.7738953741289 0.07126297032645468 0.07126297032645468 0.0011086474501108726 
158.00184315568185 1346.00228460614 0.07126297032645468 0.07126297032645468 0.0011086474501108726 
159.00184315568185 1328.2880678249585 0.07126297032645468 0.07126297032645468 0.0011086474501108726 
160.00184315568185 1309.0922965155312 0.07126297032645468 0.07126297032645468 0.0 
161.00184315568185 1270.1672680979489 0.07126297032645468 0.07126297032645468 0.0011086474501108726 
162.00184315568185 1235.3350932236094 0.07126297032645468 0.07126297032645468 0.0011086474501108726 
163.00184315568185 1182.8960088475771 0.07126297032645468 0.07126297032645468 0.0 
164.00184315568185 1145.6422291015954 0.07126297032645468 0.07126297032645468 0.0 
165.00184315568185 1089.4185167835972 0.07126297032645468 0.07126297032645468 0.0011086474501108726 
166.00184315568185 1038.578807751906 0.07126297032645468 0.07126297032645468 0.0011086474501108726 
167.00184315568185 985.7146590318295 0.07126297032645468 0.07126297032645468 0.0011086474501108726 
168.00184315568185 922.5775209851992 0.07126297032645468 0.07126297032645468 0.0011086474501108726 
169.00184315568185 867.7998602988569 0.07126297032645468 0.07126297032645468 0.0011086474501108726 
170.00184315568185 799.0521237740272 0.07126297032645468 0.07126297032645468 0.0011086474501108726 
171.00184315568185 741.765555715578 0.07126297032645468 0.07126297032645468 0.0011086474501108726 
172.00184315568185 677.8577059948406 0.07126297032645468 0.07126297032645468 0.0011086474501108726 
173.00184315568185 615.031388399727 0.07126297032645468 0.07126297032645468 0.0011086474501108726 
174.00184315568185 567.6598430287437 0.07126297032645468 0.07126297032645468 0.0011086474501108726 
175.00184315568185 522.3009712331044 0.07126297032645468 0.07126297032645468 0.0 
176.00184315568185 501.8850990206484 0.07126297032645468 0.07126297032645468 0.0 
177.00184315568185 498.577587821725 0.07126297032645468 0.07126297032645468 0.0011086474501108726 
178.00184315568185 521.5390261601666 0.07126297032645468 0.07126297032645468 0.0011086474501108726 
179.00184315568185 612.2357078207772 0.07126297032645468 0.07126297032645468 0.0 
180.00184315568185 711.8997075149122 0.07126297032645468 0.07126297032645468 0.0011086474501108726 
181.00184315568185 814.7412631745364 0.07126297032645468 0.07126297032645468 0.0 
182.00184315568185 916.8395889763281 0.07126297032645468 0.07126297032645468 0.0011086474501108726 
183.00184315568185 1008.5399802781997 0.07126297032645468 0.07126297032645468 0.0011086474501108726 
184.00184315568185 1048.5277266254166 0.07126297032645468 0.07126297032645468 0.0011086474501108726 
185.00184315568185 1045.3618401786189 0.07126297032645468 0.07126297032645468 0.0011086474501108726 
186.00184315568185 1042.4998468794406 0.07126297032645468 0.07126297032645468 0.0011086474501108726 
187.00184315568185 1024.995636052927 0.07126297032645468 0.07126297032645468 0.0011086474501108726 
188.00184315568185 1032.363269413117 0.07126297032645468 0.07126297032645468 0.0 
189.00184315568185 1039.9474595885415 0.07126297032645468 0.07126297032645468 0.0 
190.00184315568185 1050.0242472226073 0.07126297032645468 0.07126297032645468 0.0011086474501108726 
191.00184315568185 1055.068161492069 0.07126297032645468 0.07126297032645468 0.0011086474501108726 
192.00184315568185 1073.442071391825 0.07126297032645468 0.07126297032645468 0.0 
193.00184315568185 1082.4628332690081 0.07126297032645468 0.07126297032645468 0.0 
194.00184315568185 1088.3260453622474 0.07126297032645468 0.07126297032645468 0.0 
195.00184315568185 1080.08364128748 0.07126297032645468 0.07126297032645468 0.0011086474501108726 
196.00184315568185 1068.1439791634346 0.07126297032645468 0.07126297032645468 0.0 
197.00184315568185 1043.1420609574875 0.07126297032645468 0.07126297032645468 0.0 
198.00184315568185 1017.8968251559616 0.07126297032645468 0.07126297032645468 0.0011086474501108726 
199.00184315568185 974.4061162223453 0.07126297032645468 0.07126297032645468 0.0 
200.00184315568185 926.4665316829954 0.07126297032645468 0.07126297032645468 0.0011086474501108726 
201.00184315568185 896.1389989969066 0.07126297032645468 0.07126297032645468 0.0011086474501108726 
202.00184315568185 893.8096060783078 0.07126297032645468 0.07126297032645468 0.0011086474501108726 
203.00184315568185 937.7930786077837 0.07126297032645468 0.07126297032645468 0.0011086474501108726 
204.00184315568185 1010.9198626537785 0.07126297032645468 0.07126297032645468 0.0011086474501108726 
205.00184315568185 1090.8193279500376 0.07126297032645468 0.07126297032645468 0.0011086474501108726 
206.00184315568185 1172.2617090380681 0.07126297032645468 0.07126297032645468 0.0011086474501108726 
207.00184315568185 1253.8079136909553 0.07126297032645468 0.07126297032645468 0.0011086474501108726 
208.00184315568185 1305.820525040886 0.07126297032645468 0.07126297032645468 0.0011086474501108726 
209.00184315568185 1333.6376693700945 0.07126297032645468 0.07126297032645468 0.0 
210.00184315568185 1326.209224318355 0.07126297032645468 0.07126297032645468 0.0011086474501108726 
211.00184315568185 1308.444801977668 0.07126297032645468 0.07126297032645468 0.0011086474501108726 
212.00184315568185 1259.6146531117201 0.07126297032645468 0.07126297032645468 0.0011086474501108726 
213.00184315568185 1207.0844891230097 0.07126297032645468 0.07126297032645468 0.0 
214.00184315568185 1142.326018761058 0.07126297032645468 0.07126297032645468 0.0011086474501108726 
215.00184315568185 1064.7902240546362 0.07126297032645468 0.07126297032645468 0.0011086474501108726 
216.00184315568185 989.420399535139 0.07126297032645468 0.07126297032645468 0.0011086474501108726 
217.00184315568185 903.6244843811766 0.07126297032645468 0.07126297032645468 0.0011086474501108726 
218.00184315568185 823.757845220099 0.07126297032645468 0.07126297032645468 0.0011086474501108726 
219.00184315568185 740.0693804913982 0.07126297032645468 0.07126297032645468 0.0 
220.00184315568185 661.0707207465105 0.07126297032645468 0.07126297032645468 0.0 
221.00184315568185 635.5964335219894 0.07126297032645468 0.07126297032645468 0.0011086474501108726 
222.00184315568185 645.094512524183 0.07126297032645468 0.07126297032645468 0.0011086474501108726 
223.00184315568185 768.0861224736116 0.07126297032645468 0.07126297032645468 0.0 
224.00184315568185 893.1829447832363 0.07126297032645468 0.07126297032645468 0.0011086474501108726 
225.00184315568185 1039.6199926604527 0.07126297032645468 0.07126297032645468 0.0011086474501108726 
226.00184315568185 1176.187533897955 0.07126297032645468 0.07126297032645468 0.0 
227.00184315568185 1321.1604201062903 0.07126297032645468 0.07126297032645468 0.0 
228.00184315568185 1398.6111324460244 0.07126297032645468 0.07126297032645468 0.0 
229.00184315568185 1421.6898729102459 0.07126297032645468 0.07126297032645468 0.0 
230.00184315568185 1422.332127290117 0.07126297032645468 0.07126297032645468 0.0011086474501108726 
231.00184315568185 1374.8790049206411 0.07126297032645468 0.07126297032645468 0.0 
232.00184315568185 1357.7957949013276 0.07126297032645468 0.07126297032645468 0.0011086474501108726 
233.00184315568185 1334.920264348051 0.07126297032645468 0.07126297032645468 0.0011086474501108726 
234.00184315568185 1365.172946274776 0.07126297032645468 0.07126297032645468 0.0011086474501108726 
235.00184315568185 1394.8813501483276 0.07126297032645468 0.07126297032645468 0.0011086474501108726 
236.00184315568185 1440.55158802006 0.07126297032645468 0.07126297032645468 0.0011086474501108726 
237.00184315568185 1475.4787395083424 0.07126297032645468 0.07126297032645468 0.0011086474501108726 
238.00184315568185 1501.975180049778 0.07126297032645468 0.07126297032645468 0.0 
239.00184315568185 1512.9182946468911 0.07126297032645468 0.07126297032645468 0.0 
240.00184315568185 1503.7157937166803 0.07126297032645468 0.07126297032645468 0.0011086474501108726 
241.00184315568185 1500.8286378581042 0.07126297032645468 0.07126297032645468 0.0011086474501108726 
242.00184315568185 1489.3252509208044 0.07126297032645468 0.07126297032645468 0.0011086474501108726 
243.00184315568185 1477.1845041607917 0.07126297032645468 0.07126297032645468 0.0011086474501108726 
244.00184315568185 1454.174112971825 0.07126297032645468 0.07126297032645468 0.0011086474501108726 
245.00184315568185 1426.9640040184606 0.07126297032645468 0.07126297032645468 0.0011086474501108726 
246.00184315568185 1390.3477298114665 0.07126297032645468 0.07126297032645468 0.0011086474501108726 
247.00184315568185 1356.6289903463846 0.07126297032645468 0.07126297032645468 0.0011086474501108726 
248.00184315568185 1309.332472949535 0.07126297032645468 0.07126297032645468 0.0011086474501108726 
249.00184315568185 1261.2679534466893 0.07126297032645468 0.07126297032645468 0.0 
#####################################################################
# End of data export. Simulation finished at: 2017-12-15T20:17+0000 #
#####################################################################
